AMUL8/presyn.txt
Chronologic VCS simulator copyright 1991-2014
Contains Synopsys proprietary information.
Compiler version I-2014.03-2; Runtime version I-2014.03-2;  May 16 00:48 2016
		time,	mlier,	mcand,	clock,	valid,	reset,	start,	prodt
                   0,	10110111,	11011110,	0,	x,	1,	1,	xxxxxxxxxxxxxxxx
                   4,	10110111,	11011110,	1,	0,	1,	1,	0000000000000000
                   8,	10110111,	11011110,	0,	0,	1,	1,	0000000000000000
                  12,	10110111,	11011110,	1,	0,	1,	1,	0000000000000000
                  16,	10110111,	11011110,	0,	0,	1,	1,	0000000000000000
                  20,	10110111,	11011110,	1,	0,	1,	1,	0000000000000000
                  24,	10110111,	11011110,	0,	0,	1,	1,	0000000000000000
                  25,	10110111,	11011110,	0,	0,	0,	1,	0000000000000000
                  28,	10110111,	11011110,	1,	1,	0,	1,	1001111010110010
                  32,	10110111,	11011110,	0,	1,	0,	1,	1001111010110010
                  36,	10110111,	11011110,	1,	1,	0,	1,	1001111010110010
                  40,	10110111,	11011110,	0,	1,	0,	1,	1001111010110010
                  44,	10110111,	11011110,	1,	1,	0,	1,	1001111010110010
                  48,	10110111,	11011110,	0,	1,	0,	1,	1001111010110010
                  52,	10110111,	11011110,	1,	1,	0,	1,	1001111010110010
                  56,	10110111,	11011110,	0,	1,	0,	1,	1001111010110010
                  60,	10110111,	11011110,	1,	1,	0,	1,	1001111010110010
                  64,	10110111,	11011110,	0,	1,	0,	1,	1001111010110010
                  68,	10110111,	11011110,	1,	1,	0,	1,	1001111010110010
                  72,	10110111,	11011110,	0,	1,	0,	1,	1001111010110010
                  76,	10110111,	11011110,	1,	1,	0,	1,	1001111010110010
                  80,	10110111,	11011110,	0,	1,	0,	1,	1001111010110010
                  84,	10110111,	11011110,	1,	1,	0,	1,	1001111010110010
                  88,	10110111,	11011110,	0,	1,	0,	1,	1001111010110010
                  92,	10110111,	11011110,	1,	1,	0,	1,	1001111010110010
                  96,	10110111,	11011110,	0,	1,	0,	1,	1001111010110010
                 100,	10110111,	11011110,	1,	1,	0,	1,	1001111010110010
                 104,	10110111,	11011110,	0,	1,	0,	1,	1001111010110010
                 108,	10110111,	11011110,	1,	1,	0,	1,	1001111010110010
                 112,	10110111,	11011110,	0,	1,	0,	1,	1001111010110010
                 116,	10110111,	11011110,	1,	1,	0,	1,	1001111010110010
                 120,	10110111,	11011110,	0,	1,	0,	1,	1001111010110010
                 124,	10110111,	11011110,	1,	1,	0,	1,	1001111010110010
                 128,	10110111,	11011110,	0,	1,	0,	1,	1001111010110010
                 132,	10110111,	11011110,	1,	1,	0,	1,	1001111010110010
                 136,	10110111,	11011110,	0,	1,	0,	1,	1001111010110010
                 140,	10110111,	11011110,	1,	1,	0,	1,	1001111010110010
                 144,	10110111,	11011110,	0,	1,	0,	1,	1001111010110010
                 148,	10110111,	11011110,	1,	1,	0,	1,	1001111010110010
                 152,	10110111,	11011110,	0,	1,	0,	1,	1001111010110010
                 156,	10110111,	11011110,	1,	1,	0,	1,	1001111010110010
                 160,	10110111,	11011110,	0,	1,	0,	1,	1001111010110010
                 164,	10110111,	11011110,	1,	1,	0,	1,	1001111010110010
                 168,	10110111,	11011110,	0,	1,	0,	1,	1001111010110010
                 172,	10110111,	11011110,	1,	1,	0,	1,	1001111010110010
                 176,	10110111,	11011110,	0,	1,	0,	1,	1001111010110010
                 180,	10110111,	11011110,	1,	1,	0,	1,	1001111010110010
                 184,	10110111,	11011110,	0,	1,	0,	1,	1001111010110010
                 188,	10110111,	11011110,	1,	1,	0,	1,	1001111010110010
                 192,	10110111,	11011110,	0,	1,	0,	1,	1001111010110010
                 196,	10110111,	11011110,	1,	1,	0,	1,	1001111010110010
                 200,	10110111,	11011110,	0,	1,	0,	1,	1001111010110010
                 204,	10110111,	11011110,	1,	1,	0,	1,	1001111010110010
                 208,	10110111,	11011110,	0,	1,	0,	1,	1001111010110010
                 212,	10110111,	11011110,	1,	1,	0,	1,	1001111010110010
                 216,	10110111,	11011110,	0,	1,	0,	1,	1001111010110010
                 220,	10110111,	11011110,	1,	1,	0,	1,	1001111010110010
                 224,	10110111,	11011110,	0,	1,	0,	1,	1001111010110010
                 225,	10110111,	00011110,	0,	1,	0,	1,	1001111010110010
                 228,	10110111,	00011110,	1,	1,	0,	1,	0001010101110010
                 232,	10110111,	00011110,	0,	1,	0,	1,	0001010101110010
                 236,	10110111,	00011110,	1,	1,	0,	1,	0001010101110010
                 240,	10110111,	00011110,	0,	1,	0,	1,	0001010101110010
                 244,	10110111,	00011110,	1,	1,	0,	1,	0001010101110010
                 248,	10110111,	00011110,	0,	1,	0,	1,	0001010101110010
                 252,	10110111,	00011110,	1,	1,	0,	1,	0001010101110010
                 256,	10110111,	00011110,	0,	1,	0,	1,	0001010101110010
                 260,	10110111,	00011110,	1,	1,	0,	1,	0001010101110010
                 264,	10110111,	00011110,	0,	1,	0,	1,	0001010101110010
                 268,	10110111,	00011110,	1,	1,	0,	1,	0001010101110010
                 272,	10110111,	00011110,	0,	1,	0,	1,	0001010101110010
                 276,	10110111,	00011110,	1,	1,	0,	1,	0001010101110010
                 280,	10110111,	00011110,	0,	1,	0,	1,	0001010101110010
                 284,	10110111,	00011110,	1,	1,	0,	1,	0001010101110010
                 288,	10110111,	00011110,	0,	1,	0,	1,	0001010101110010
                 292,	10110111,	00011110,	1,	1,	0,	1,	0001010101110010
                 296,	10110111,	00011110,	0,	1,	0,	1,	0001010101110010
                 300,	10110111,	00011110,	1,	1,	0,	1,	0001010101110010
                 304,	10110111,	00011110,	0,	1,	0,	1,	0001010101110010
                 308,	10110111,	00011110,	1,	1,	0,	1,	0001010101110010
                 312,	10110111,	00011110,	0,	1,	0,	1,	0001010101110010
                 316,	10110111,	00011110,	1,	1,	0,	1,	0001010101110010
                 320,	10110111,	00011110,	0,	1,	0,	1,	0001010101110010
                 324,	10110111,	00011110,	1,	1,	0,	1,	0001010101110010
                 328,	10110111,	00011110,	0,	1,	0,	1,	0001010101110010
                 332,	10110111,	00011110,	1,	1,	0,	1,	0001010101110010
                 336,	10110111,	00011110,	0,	1,	0,	1,	0001010101110010
                 340,	10110111,	00011110,	1,	1,	0,	1,	0001010101110010
                 344,	10110111,	00011110,	0,	1,	0,	1,	0001010101110010
                 348,	10110111,	00011110,	1,	1,	0,	1,	0001010101110010
                 352,	10110111,	00011110,	0,	1,	0,	1,	0001010101110010
                 356,	10110111,	00011110,	1,	1,	0,	1,	0001010101110010
                 360,	10110111,	00011110,	0,	1,	0,	1,	0001010101110010
                 364,	10110111,	00011110,	1,	1,	0,	1,	0001010101110010
                 368,	10110111,	00011110,	0,	1,	0,	1,	0001010101110010
                 372,	10110111,	00011110,	1,	1,	0,	1,	0001010101110010
                 376,	10110111,	00011110,	0,	1,	0,	1,	0001010101110010
                 380,	10110111,	00011110,	1,	1,	0,	1,	0001010101110010
                 384,	10110111,	00011110,	0,	1,	0,	1,	0001010101110010
                 388,	10110111,	00011110,	1,	1,	0,	1,	0001010101110010
                 392,	10110111,	00011110,	0,	1,	0,	1,	0001010101110010
                 396,	10110111,	00011110,	1,	1,	0,	1,	0001010101110010
                 400,	10110111,	00011110,	0,	1,	0,	1,	0001010101110010
                 404,	10110111,	00011110,	1,	1,	0,	1,	0001010101110010
                 408,	10110111,	00011110,	0,	1,	0,	1,	0001010101110010
                 412,	10110111,	00011110,	1,	1,	0,	1,	0001010101110010
                 416,	10110111,	00011110,	0,	1,	0,	1,	0001010101110010
                 420,	10110111,	00011110,	1,	1,	0,	1,	0001010101110010
                 424,	10110111,	00011110,	0,	1,	0,	1,	0001010101110010
                 425,	10010101,	11011011,	0,	1,	0,	1,	0001010101110010
                 428,	10010101,	11011011,	1,	1,	0,	1,	0111111101110111
                 432,	10010101,	11011011,	0,	1,	0,	1,	0111111101110111
                 436,	10010101,	11011011,	1,	1,	0,	1,	0111111101110111
                 440,	10010101,	11011011,	0,	1,	0,	1,	0111111101110111
                 444,	10010101,	11011011,	1,	1,	0,	1,	0111111101110111
                 448,	10010101,	11011011,	0,	1,	0,	1,	0111111101110111
                 452,	10010101,	11011011,	1,	1,	0,	1,	0111111101110111
                 456,	10010101,	11011011,	0,	1,	0,	1,	0111111101110111
                 460,	10010101,	11011011,	1,	1,	0,	1,	0111111101110111
                 464,	10010101,	11011011,	0,	1,	0,	1,	0111111101110111
                 468,	10010101,	11011011,	1,	1,	0,	1,	0111111101110111
                 472,	10010101,	11011011,	0,	1,	0,	1,	0111111101110111
                 476,	10010101,	11011011,	1,	1,	0,	1,	0111111101110111
                 480,	10010101,	11011011,	0,	1,	0,	1,	0111111101110111
                 484,	10010101,	11011011,	1,	1,	0,	1,	0111111101110111
                 488,	10010101,	11011011,	0,	1,	0,	1,	0111111101110111
                 492,	10010101,	11011011,	1,	1,	0,	1,	0111111101110111
                 496,	10010101,	11011011,	0,	1,	0,	1,	0111111101110111
                 500,	10010101,	11011011,	1,	1,	0,	1,	0111111101110111
                 504,	10010101,	11011011,	0,	1,	0,	1,	0111111101110111
                 508,	10010101,	11011011,	1,	1,	0,	1,	0111111101110111
                 512,	10010101,	11011011,	0,	1,	0,	1,	0111111101110111
                 516,	10010101,	11011011,	1,	1,	0,	1,	0111111101110111
                 520,	10010101,	11011011,	0,	1,	0,	1,	0111111101110111
                 524,	10010101,	11011011,	1,	1,	0,	1,	0111111101110111
                 528,	10010101,	11011011,	0,	1,	0,	1,	0111111101110111
                 532,	10010101,	11011011,	1,	1,	0,	1,	0111111101110111
                 536,	10010101,	11011011,	0,	1,	0,	1,	0111111101110111
                 540,	10010101,	11011011,	1,	1,	0,	1,	0111111101110111
                 544,	10010101,	11011011,	0,	1,	0,	1,	0111111101110111
                 548,	10010101,	11011011,	1,	1,	0,	1,	0111111101110111
                 552,	10010101,	11011011,	0,	1,	0,	1,	0111111101110111
                 556,	10010101,	11011011,	1,	1,	0,	1,	0111111101110111
                 560,	10010101,	11011011,	0,	1,	0,	1,	0111111101110111
                 564,	10010101,	11011011,	1,	1,	0,	1,	0111111101110111
                 568,	10010101,	11011011,	0,	1,	0,	1,	0111111101110111
                 572,	10010101,	11011011,	1,	1,	0,	1,	0111111101110111
                 576,	10010101,	11011011,	0,	1,	0,	1,	0111111101110111
                 580,	10010101,	11011011,	1,	1,	0,	1,	0111111101110111
                 584,	10010101,	11011011,	0,	1,	0,	1,	0111111101110111
                 588,	10010101,	11011011,	1,	1,	0,	1,	0111111101110111
                 592,	10010101,	11011011,	0,	1,	0,	1,	0111111101110111
                 596,	10010101,	11011011,	1,	1,	0,	1,	0111111101110111
                 600,	10010101,	11011011,	0,	1,	0,	1,	0111111101110111
                 604,	10010101,	11011011,	1,	1,	0,	1,	0111111101110111
                 608,	10010101,	11011011,	0,	1,	0,	1,	0111111101110111
                 612,	10010101,	11011011,	1,	1,	0,	1,	0111111101110111
                 616,	10010101,	11011011,	0,	1,	0,	1,	0111111101110111
                 620,	10010101,	11011011,	1,	1,	0,	1,	0111111101110111
                 624,	10010101,	11011011,	0,	1,	0,	1,	0111111101110111
                 625,	11101111,	11111100,	0,	1,	0,	1,	0111111101110111
                 628,	11101111,	11111100,	1,	1,	0,	1,	1110101101000100
                 632,	11101111,	11111100,	0,	1,	0,	1,	1110101101000100
                 636,	11101111,	11111100,	1,	1,	0,	1,	1110101101000100
                 640,	11101111,	11111100,	0,	1,	0,	1,	1110101101000100
                 644,	11101111,	11111100,	1,	1,	0,	1,	1110101101000100
                 648,	11101111,	11111100,	0,	1,	0,	1,	1110101101000100
                 652,	11101111,	11111100,	1,	1,	0,	1,	1110101101000100
                 656,	11101111,	11111100,	0,	1,	0,	1,	1110101101000100
                 660,	11101111,	11111100,	1,	1,	0,	1,	1110101101000100
                 664,	11101111,	11111100,	0,	1,	0,	1,	1110101101000100
                 668,	11101111,	11111100,	1,	1,	0,	1,	1110101101000100
                 672,	11101111,	11111100,	0,	1,	0,	1,	1110101101000100
                 676,	11101111,	11111100,	1,	1,	0,	1,	1110101101000100
                 680,	11101111,	11111100,	0,	1,	0,	1,	1110101101000100
                 684,	11101111,	11111100,	1,	1,	0,	1,	1110101101000100
                 688,	11101111,	11111100,	0,	1,	0,	1,	1110101101000100
                 692,	11101111,	11111100,	1,	1,	0,	1,	1110101101000100
                 696,	11101111,	11111100,	0,	1,	0,	1,	1110101101000100
                 700,	11101111,	11111100,	1,	1,	0,	1,	1110101101000100
                 704,	11101111,	11111100,	0,	1,	0,	1,	1110101101000100
                 708,	11101111,	11111100,	1,	1,	0,	1,	1110101101000100
                 712,	11101111,	11111100,	0,	1,	0,	1,	1110101101000100
                 716,	11101111,	11111100,	1,	1,	0,	1,	1110101101000100
                 720,	11101111,	11111100,	0,	1,	0,	1,	1110101101000100
                 724,	11101111,	11111100,	1,	1,	0,	1,	1110101101000100
                 728,	11101111,	11111100,	0,	1,	0,	1,	1110101101000100
                 732,	11101111,	11111100,	1,	1,	0,	1,	1110101101000100
                 736,	11101111,	11111100,	0,	1,	0,	1,	1110101101000100
                 740,	11101111,	11111100,	1,	1,	0,	1,	1110101101000100
                 744,	11101111,	11111100,	0,	1,	0,	1,	1110101101000100
                 748,	11101111,	11111100,	1,	1,	0,	1,	1110101101000100
                 752,	11101111,	11111100,	0,	1,	0,	1,	1110101101000100
                 756,	11101111,	11111100,	1,	1,	0,	1,	1110101101000100
                 760,	11101111,	11111100,	0,	1,	0,	1,	1110101101000100
                 764,	11101111,	11111100,	1,	1,	0,	1,	1110101101000100
                 768,	11101111,	11111100,	0,	1,	0,	1,	1110101101000100
                 772,	11101111,	11111100,	1,	1,	0,	1,	1110101101000100
                 776,	11101111,	11111100,	0,	1,	0,	1,	1110101101000100
                 780,	11101111,	11111100,	1,	1,	0,	1,	1110101101000100
                 784,	11101111,	11111100,	0,	1,	0,	1,	1110101101000100
                 788,	11101111,	11111100,	1,	1,	0,	1,	1110101101000100
                 792,	11101111,	11111100,	0,	1,	0,	1,	1110101101000100
                 796,	11101111,	11111100,	1,	1,	0,	1,	1110101101000100
                 800,	11101111,	11111100,	0,	1,	0,	1,	1110101101000100
                 804,	11101111,	11111100,	1,	1,	0,	1,	1110101101000100
                 808,	11101111,	11111100,	0,	1,	0,	1,	1110101101000100
                 812,	11101111,	11111100,	1,	1,	0,	1,	1110101101000100
                 816,	11101111,	11111100,	0,	1,	0,	1,	1110101101000100
                 820,	11101111,	11111100,	1,	1,	0,	1,	1110101101000100
                 824,	11101111,	11111100,	0,	1,	0,	1,	1110101101000100
                 828,	11101111,	11111100,	1,	1,	0,	1,	1110101101000100
                 832,	11101111,	11111100,	0,	1,	0,	1,	1110101101000100
                 836,	11101111,	11111100,	1,	1,	0,	1,	1110101101000100
                 840,	11101111,	11111100,	0,	1,	0,	1,	1110101101000100
                 844,	11101111,	11111100,	1,	1,	0,	1,	1110101101000100
                 848,	11101111,	11111100,	0,	1,	0,	1,	1110101101000100
                 852,	11101111,	11111100,	1,	1,	0,	1,	1110101101000100
                 856,	11101111,	11111100,	0,	1,	0,	1,	1110101101000100
                 860,	11101111,	11111100,	1,	1,	0,	1,	1110101101000100
                 864,	11101111,	11111100,	0,	1,	0,	1,	1110101101000100
                 868,	11101111,	11111100,	1,	1,	0,	1,	1110101101000100
                 872,	11101111,	11111100,	0,	1,	0,	1,	1110101101000100
                 876,	11101111,	11111100,	1,	1,	0,	1,	1110101101000100
                 880,	11101111,	11111100,	0,	1,	0,	1,	1110101101000100
                 884,	11101111,	11111100,	1,	1,	0,	1,	1110101101000100
                 888,	11101111,	11111100,	0,	1,	0,	1,	1110101101000100
                 892,	11101111,	11111100,	1,	1,	0,	1,	1110101101000100
                 896,	11101111,	11111100,	0,	1,	0,	1,	1110101101000100
                 900,	11101111,	11111100,	1,	1,	0,	1,	1110101101000100
                 904,	11101111,	11111100,	0,	1,	0,	1,	1110101101000100
                 908,	11101111,	11111100,	1,	1,	0,	1,	1110101101000100
                 912,	11101111,	11111100,	0,	1,	0,	1,	1110101101000100
                 916,	11101111,	11111100,	1,	1,	0,	1,	1110101101000100
                 920,	11101111,	11111100,	0,	1,	0,	1,	1110101101000100
                 924,	11101111,	11111100,	1,	1,	0,	1,	1110101101000100
                 928,	11101111,	11111100,	0,	1,	0,	1,	1110101101000100
                 932,	11101111,	11111100,	1,	1,	0,	1,	1110101101000100
                 936,	11101111,	11111100,	0,	1,	0,	1,	1110101101000100
                 940,	11101111,	11111100,	1,	1,	0,	1,	1110101101000100
                 944,	11101111,	11111100,	0,	1,	0,	1,	1110101101000100
                 948,	11101111,	11111100,	1,	1,	0,	1,	1110101101000100
                 952,	11101111,	11111100,	0,	1,	0,	1,	1110101101000100
                 956,	11101111,	11111100,	1,	1,	0,	1,	1110101101000100
                 960,	11101111,	11111100,	0,	1,	0,	1,	1110101101000100
                 964,	11101111,	11111100,	1,	1,	0,	1,	1110101101000100
                 968,	11101111,	11111100,	0,	1,	0,	1,	1110101101000100
                 972,	11101111,	11111100,	1,	1,	0,	1,	1110101101000100
                 976,	11101111,	11111100,	0,	1,	0,	1,	1110101101000100
                 980,	11101111,	11111100,	1,	1,	0,	1,	1110101101000100
                 984,	11101111,	11111100,	0,	1,	0,	1,	1110101101000100
                 988,	11101111,	11111100,	1,	1,	0,	1,	1110101101000100
                 992,	11101111,	11111100,	0,	1,	0,	1,	1110101101000100
                 996,	11101111,	11111100,	1,	1,	0,	1,	1110101101000100
$finish called from file "array_tb.v", line 37.
$finish at simulation time               100000
           V C S   S i m u l a t i o n   R e p o r t 
Time: 1000000 ps
CPU Time:      0.330 seconds;       Data structure size:   0.1Mb
Mon May 16 00:48:10 2016
