AMUL16/ncverilog.log
ncverilog: 14.10-p001: (c) Copyright 1995-2014 Cadence Design Systems, Inc.
TOOL:	ncverilog	14.10-p001: Started on May 14, 2016 at 20:47:21 PDT
ncverilog
	-y
	/apps/toshiba/sjsu/verilog/tc240c
	+libext+.tsbvlibp
	+access+r
	array_tb.v
	array_netlist.v
Recompiling... reason: file './array_netlist.v' is newer than expected.
	expected: Sat May 14 20:19:10 2016
	actual:   Sat May 14 20:37:04 2016
file: array_tb.v
	module worklib.array_bin_tb:v
		errors: 0, warnings: 0
		Caching library 'tc240c' ....... Done
		Caching library 'worklib' ....... Done
	Elaborating the design hierarchy:
  bit32_0 A0 ( .a32({1'b0, 1'b0, 1'b0, 1'b0, 1'b0, 1'b0, 1'b0, 1'b0, 1'b0, 
           |
ncelab: *W,CUVWSP (./array_netlist.v,152908|11): 1 output port was not connected:
ncelab: (./array_netlist.v,10184): c_out32

  bit32_14 A1 ( .a32({1'b0, 1'b0, 1'b0, 1'b0, 1'b0, 1'b0, 1'b0, 1'b0, 1'b0, 
            |
ncelab: *W,CUVWSP (./array_netlist.v,152912|12): 1 output port was not connected:
ncelab: (./array_netlist.v,152844): c_out32

  bit32_13 A2 ( .a32({1'b0, 1'b0, 1'b0, 1'b0, 1'b0, 1'b0, 1'b0, 1'b0, 1'b0, 
            |
ncelab: *W,CUVWSP (./array_netlist.v,152916|12): 1 output port was not connected:
ncelab: (./array_netlist.v,142643): c_out32

  bit32_12 A3 ( .a32({1'b0, 1'b0, 1'b0, 1'b0, 1'b0, 1'b0, 1'b0, 1'b0, 1'b0, 
            |
ncelab: *W,CUVWSP (./array_netlist.v,152920|12): 1 output port was not connected:
ncelab: (./array_netlist.v,132448): c_out32

  bit32_11 A4 ( .a32({1'b0, 1'b0, 1'b0, 1'b0, 1'b0, 1'b0, 1'b0, 1'b0, p8, 1'b0, 
            |
ncelab: *W,CUVWSP (./array_netlist.v,152924|12): 1 output port was not connected:
ncelab: (./array_netlist.v,122255): c_out32

  bit32_10 A5 ( .a32({1'b0, 1'b0, 1'b0, 1'b0, 1'b0, 1'b0, p10, 1'b0, 1'b0, 
            |
ncelab: *W,CUVWSP (./array_netlist.v,152928|12): 1 output port was not connected:
ncelab: (./array_netlist.v,112062): c_out32

  bit32_9 A6 ( .a32({1'b0, 1'b0, 1'b0, 1'b0, p12, 1'b0, 1'b0, 1'b0, 1'b0, 1'b0, 
           |
ncelab: *W,CUVWSP (./array_netlist.v,152932|11): 1 output port was not connected:
ncelab: (./array_netlist.v,101871): c_out32

  bit32_8 A7 ( .a32({1'b0, 1'b0, p14, 1'b0, 1'b0, 1'b0, 1'b0, 1'b0, 1'b0, 1'b0, 
           |
ncelab: *W,CUVWSP (./array_netlist.v,152936|11): 1 output port was not connected:
ncelab: (./array_netlist.v,91680): c_out32

  bit32_7 A8 ( .a32(s1), .b32(s2), .sum32(s9), .c_in32(1'b0) );
           |
ncelab: *W,CUVWSP (./array_netlist.v,152940|11): 1 output port was not connected:
ncelab: (./array_netlist.v,81489): c_out32

  bit32_6 A9 ( .a32(s3), .b32(s4), .sum32(s10), .c_in32(1'b0) );
           |
ncelab: *W,CUVWSP (./array_netlist.v,152941|11): 1 output port was not connected:
ncelab: (./array_netlist.v,71277): c_out32

  bit32_5 A10 ( .a32(s5), .b32(s6), .sum32(s11), .c_in32(1'b0) );
            |
ncelab: *W,CUVWSP (./array_netlist.v,152942|12): 1 output port was not connected:
ncelab: (./array_netlist.v,61086): c_out32

  bit32_4 A11 ( .a32(s7), .b32(s8), .sum32(s12), .c_in32(1'b0) );
            |
ncelab: *W,CUVWSP (./array_netlist.v,152943|12): 1 output port was not connected:
ncelab: (./array_netlist.v,50894): c_out32

  bit32_3 A12 ( .a32(s9), .b32(s10), .sum32(s13), .c_in32(1'b0) );
            |
ncelab: *W,CUVWSP (./array_netlist.v,152944|12): 1 output port was not connected:
ncelab: (./array_netlist.v,40700): c_out32

  bit32_2 A13 ( .a32(s11), .b32(s12), .sum32(s14), .c_in32(1'b0) );
            |
ncelab: *W,CUVWSP (./array_netlist.v,152945|12): 1 output port was not connected:
ncelab: (./array_netlist.v,30497): c_out32

  bit32_1 A14 ( .a32(s13), .b32(s14), .sum32(s15), .c_in32(1'b0) );
            |
ncelab: *W,CUVWSP (./array_netlist.v,152946|12): 1 output port was not connected:
ncelab: (./array_netlist.v,20305): c_out32

	Building instance overlay tables: .................... Done
	Generating native compiled code:
		worklib.array_bin_tb:v <0x4515ad2c>
			streams:  11, words:  8339
	Building instance specific data structures.
	Loading native compiled code:     .................... Done
	Design hierarchy summary:
		                    Instances  Unique
		Modules:                40874   12835
		UDPs:                      33       1
		Primitives:            137509       9
		Timing outputs:         28049      20
		Registers:                 38       7
		Scalar wires:           33144       -
		Expanded wires:            32       2
		Always blocks:              1       1
		Initial blocks:             4       4
		Pseudo assignments:         5       5
		Timing checks:            198      67
		Simulation timescale:    10ps
	Writing initial simulation snapshot: worklib.array_bin_tb:v
Loading snapshot worklib.array_bin_tb:v .................... Done
ncsim> source /apps/cadence/INCISIV141/tools/inca/files/ncsimrc
ncsim> run
		time,	mlier,	mcand,	clock,	valid,	reset,	start,	prodt
                   0,	1001011110010111,	1101010011010100,	0,	x,	1,	1,	xxxxxxxxxxxxxxxxxxxxxxxxxxxxxxxx
                   8,	1001011110010111,	1101010011010100,	1,	x,	1,	1,	xxxxxxxxxxxxxxxxxxxxxxxxxxxxxxxx
                   8,	1001011110010111,	1101010011010100,	1,	0,	1,	1,	00000000000000000000000000000000
                  15,	1001011110010111,	1101010011010100,	0,	0,	1,	1,	00000000000000000000000000000000
                  23,	1001011110010111,	1101010011010100,	1,	0,	1,	1,	00000000000000000000000000000000
                  25,	1001011110010111,	1101010011010100,	1,	0,	0,	1,	00000000000000000000000000000000
                  30,	1001011110010111,	1101010011010100,	0,	0,	0,	1,	00000000000000000000000000000000
                  38,	1001011110010111,	1101010011010100,	1,	0,	0,	1,	00000000000000000000000000000000
                  38,	1001011110010111,	1101010011010100,	1,	1,	0,	1,	01111110000001101001010100001100
                  45,	1001011110010111,	1101010011010100,	0,	1,	0,	1,	01111110000001101001010100001100
                  53,	1001011110010111,	1101010011010100,	1,	1,	0,	1,	01111110000001101001010100001100
                  60,	1001011110010111,	1101010011010100,	0,	1,	0,	1,	01111110000001101001010100001100
                  68,	1001011110010111,	1101010011010100,	1,	1,	0,	1,	01111110000001101001010100001100
                  75,	1001011110010111,	1101010011010100,	0,	1,	0,	1,	01111110000001101001010100001100
                  83,	1001011110010111,	1101010011010100,	1,	1,	0,	1,	01111110000001101001010100001100
                  90,	1001011110010111,	1101010011010100,	0,	1,	0,	1,	01111110000001101001010100001100
                  98,	1001011110010111,	1101010011010100,	1,	1,	0,	1,	01111110000001101001010100001100
                 105,	1001011110010111,	1101010011010100,	0,	1,	0,	1,	01111110000001101001010100001100
                 113,	1001011110010111,	1101010011010100,	1,	1,	0,	1,	01111110000001101001010100001100
                 120,	1001011110010111,	1101010011010100,	0,	1,	0,	1,	01111110000001101001010100001100
                 128,	1001011110010111,	1101010011010100,	1,	1,	0,	1,	01111110000001101001010100001100
                 135,	1001011110010111,	1101010011010100,	0,	1,	0,	1,	01111110000001101001010100001100
                 143,	1001011110010111,	1101010011010100,	1,	1,	0,	1,	01111110000001101001010100001100
                 150,	1001011110010111,	1101010011010100,	0,	1,	0,	1,	01111110000001101001010100001100
                 158,	1001011110010111,	1101010011010100,	1,	1,	0,	1,	01111110000001101001010100001100
                 165,	1001011110010111,	1101010011010100,	0,	1,	0,	1,	01111110000001101001010100001100
                 173,	1001011110010111,	1101010011010100,	1,	1,	0,	1,	01111110000001101001010100001100
                 180,	1001011110010111,	1101010011010100,	0,	1,	0,	1,	01111110000001101001010100001100
                 188,	1001011110010111,	1101010011010100,	1,	1,	0,	1,	01111110000001101001010100001100
                 195,	1001011110010111,	1101010011010100,	0,	1,	0,	1,	01111110000001101001010100001100
                 203,	1001011110010111,	1101010011010100,	1,	1,	0,	1,	01111110000001101001010100001100
                 210,	1001011110010111,	1101010011010100,	0,	1,	0,	1,	01111110000001101001010100001100
                 218,	1001011110010111,	1101010011010100,	1,	1,	0,	1,	01111110000001101001010100001100
                 225,	1001011110010111,	1101111011011110,	0,	1,	0,	1,	01111110000001101001010100001100

Warning!  Timing violation
           $setuphold<setup>( posedge CP &&& D_low:232500 PS, D:232350 PS,  0.26 : 260 PS,  0.26 : 260 PS );
            File: /apps/toshiba/sjsu/verilog/tc240c/tsbCFD1QXL.tsbvlibp, line = 21
           Scope: array_bin_tb.A0.\prodt_reg[28] .tsbCFD1QXL_1
            Time: 232500 PS


Warning!  Timing violation
           $setuphold<setup>( posedge CP &&& D:232500 PS, D:232360 PS,  0.22 : 220 PS,  0.26 : 260 PS );
            File: /apps/toshiba/sjsu/verilog/tc240c/tsbCFD1QXL.tsbvlibp, line = 20
           Scope: array_bin_tb.A0.\prodt_reg[20] .tsbCFD1QXL_1
            Time: 232500 PS


Warning!  Timing violation
           $setuphold<setup>( posedge CP &&& D_low:232500 PS, D:232350 PS,  0.26 : 260 PS,  0.26 : 260 PS );
            File: /apps/toshiba/sjsu/verilog/tc240c/tsbCFD1QXL.tsbvlibp, line = 21
           Scope: array_bin_tb.A0.\prodt_reg[12] .tsbCFD1QXL_1
            Time: 232500 PS


Warning!  Timing violation
           $setuphold<setup>( posedge CP &&& D:232500 PS, D:232380 PS,  0.22 : 220 PS,  0.26 : 260 PS );
            File: /apps/toshiba/sjsu/verilog/tc240c/tsbCFD1QXL.tsbvlibp, line = 20
           Scope: array_bin_tb.A0.\prodt_reg[5] .tsbCFD1QXL_1
            Time: 232500 PS


Warning!  Timing violation
           $setuphold<hold>( posedge CP &&& D:232500 PS, D:232500 PS,  0.22 : 220 PS,  0.26 : 260 PS );
            File: /apps/toshiba/sjsu/verilog/tc240c/tsbCFD1QXL.tsbvlibp, line = 20
           Scope: array_bin_tb.A0.\prodt_reg[4] .tsbCFD1QXL_1
            Time: 232500 PS


Warning!  Timing violation
           $setuphold<setup>( posedge CP &&& D_low:232500 PS, D:232410 PS,  0.26 : 260 PS,  0.26 : 260 PS );
            File: /apps/toshiba/sjsu/verilog/tc240c/tsbCFD1QXL.tsbvlibp, line = 21
           Scope: array_bin_tb.A0.\prodt_reg[30] .tsbCFD1QXL_1
            Time: 232500 PS

                 233,	1001011110010111,	1101111011011110,	1,	1,	0,	1,	01111110000001101001010100001100

Warning!  Timing violation
           $setuphold<hold>( posedge CP &&& D:232500 PS, D:232530 PS,  0.22 : 220 PS,  0.26 : 260 PS );
            File: /apps/toshiba/sjsu/verilog/tc240c/tsbCFD1QXL.tsbvlibp, line = 20
           Scope: array_bin_tb.A0.\prodt_reg[29] .tsbCFD1QXL_1
            Time: 232530 PS


Warning!  Timing violation
           $setuphold<hold>( posedge CP &&& D_low:232500 PS, D:232560 PS,  0.26 : 260 PS,  0.26 : 260 PS );
            File: /apps/toshiba/sjsu/verilog/tc240c/tsbCFD1QXL.tsbvlibp, line = 21
           Scope: array_bin_tb.A0.\prodt_reg[25] .tsbCFD1QXL_1
            Time: 232560 PS


Warning!  Timing violation
           $setuphold<hold>( posedge CP &&& D_low:232500 PS, D:232650 PS,  0.26 : 260 PS,  0.26 : 260 PS );
            File: /apps/toshiba/sjsu/verilog/tc240c/tsbCFD1QXL.tsbvlibp, line = 21
           Scope: array_bin_tb.A0.\prodt_reg[31] .tsbCFD1QXL_1
            Time: 232650 PS

                 233,	1001011110010111,	1101111011011110,	1,	1,	0,	1,	0xxx00x000000000000x000000000000
                 233,	1001011110010111,	1101111011011110,	1,	1,	0,	1,	xxxx00x0001x0001000x000000xx0000
                 240,	1001011110010111,	1101111011011110,	0,	1,	0,	1,	xxxx00x0001x0001000x000000xx0000
                 248,	1001011110010111,	1101111011011110,	1,	1,	0,	1,	xxxx00x0001x0001000x000000xx0000
                 248,	1001011110010111,	1101111011011110,	1,	1,	0,	1,	x00000x0001x00000000000000xx0000
                 248,	1001011110010111,	1101111011011110,	1,	1,	0,	1,	10000011111110000110011011110010
                 255,	1001011110010111,	1101111011011110,	0,	1,	0,	1,	10000011111110000110011011110010
                 263,	1001011110010111,	1101111011011110,	1,	1,	0,	1,	10000011111110000110011011110010
                 270,	1001011110010111,	1101111011011110,	0,	1,	0,	1,	10000011111110000110011011110010
                 278,	1001011110010111,	1101111011011110,	1,	1,	0,	1,	10000011111110000110011011110010
                 285,	1001011110010111,	1101111011011110,	0,	1,	0,	1,	10000011111110000110011011110010
                 293,	1001011110010111,	1101111011011110,	1,	1,	0,	1,	10000011111110000110011011110010
                 300,	1001011110010111,	1101111011011110,	0,	1,	0,	1,	10000011111110000110011011110010
                 308,	1001011110010111,	1101111011011110,	1,	1,	0,	1,	10000011111110000110011011110010
                 315,	1001011110010111,	1101111011011110,	0,	1,	0,	1,	10000011111110000110011011110010
                 323,	1001011110010111,	1101111011011110,	1,	1,	0,	1,	10000011111110000110011011110010
                 330,	1001011110010111,	1101111011011110,	0,	1,	0,	1,	10000011111110000110011011110010
                 338,	1001011110010111,	1101111011011110,	1,	1,	0,	1,	10000011111110000110011011110010
                 345,	1001011110010111,	1101111011011110,	0,	1,	0,	1,	10000011111110000110011011110010
                 353,	1001011110010111,	1101111011011110,	1,	1,	0,	1,	10000011111110000110011011110010
                 360,	1001011110010111,	1101111011011110,	0,	1,	0,	1,	10000011111110000110011011110010
                 368,	1001011110010111,	1101111011011110,	1,	1,	0,	1,	10000011111110000110011011110010
                 375,	1001011110010111,	1101111011011110,	0,	1,	0,	1,	10000011111110000110011011110010
                 383,	1001011110010111,	1101111011011110,	1,	1,	0,	1,	10000011111110000110011011110010
                 390,	1001011110010111,	1101111011011110,	0,	1,	0,	1,	10000011111110000110011011110010
                 398,	1001011110010111,	1101111011011110,	1,	1,	0,	1,	10000011111110000110011011110010
                 405,	1001011110010111,	1101111011011110,	0,	1,	0,	1,	10000011111110000110011011110010
                 413,	1001011110010111,	1101111011011110,	1,	1,	0,	1,	10000011111110000110011011110010
                 420,	1001011110010111,	1101111011011110,	0,	1,	0,	1,	10000011111110000110011011110010
                 425,	0001010100010101,	1101111111011111,	0,	1,	0,	1,	10000011111110000110011011110010
                 428,	0001010100010101,	1101111111011111,	1,	1,	0,	1,	10000011111110000110011011110010
                 435,	0001010100010101,	1101111111011111,	0,	1,	0,	1,	10000011111110000110011011110010
                 443,	0001010100010101,	1101111111011111,	1,	1,	0,	1,	10000011111110000110011011110010
                 443,	0001010100010101,	1101111111011111,	1,	1,	0,	1,	00000010011010000010000001000010
                 443,	0001010100010101,	1101111111011111,	1,	1,	0,	1,	00010010011011111010100001001011
                 450,	0001010100010101,	1101111111011111,	0,	1,	0,	1,	00010010011011111010100001001011
                 458,	0001010100010101,	1101111111011111,	1,	1,	0,	1,	00010010011011111010100001001011
                 465,	0001010100010101,	1101111111011111,	0,	1,	0,	1,	00010010011011111010100001001011
                 473,	0001010100010101,	1101111111011111,	1,	1,	0,	1,	00010010011011111010100001001011
                 480,	0001010100010101,	1101111111011111,	0,	1,	0,	1,	00010010011011111010100001001011
                 488,	0001010100010101,	1101111111011111,	1,	1,	0,	1,	00010010011011111010100001001011
                 495,	0001010100010101,	1101111111011111,	0,	1,	0,	1,	00010010011011111010100001001011
                 503,	0001010100010101,	1101111111011111,	1,	1,	0,	1,	00010010011011111010100001001011
                 510,	0001010100010101,	1101111111011111,	0,	1,	0,	1,	00010010011011111010100001001011
                 518,	0001010100010101,	1101111111011111,	1,	1,	0,	1,	00010010011011111010100001001011
                 525,	0001010100010101,	1101111111011111,	0,	1,	0,	1,	00010010011011111010100001001011
                 533,	0001010100010101,	1101111111011111,	1,	1,	0,	1,	00010010011011111010100001001011
                 540,	0001010100010101,	1101111111011111,	0,	1,	0,	1,	00010010011011111010100001001011
                 548,	0001010100010101,	1101111111011111,	1,	1,	0,	1,	00010010011011111010100001001011
                 555,	0001010100010101,	1101111111011111,	0,	1,	0,	1,	00010010011011111010100001001011
                 563,	0001010100010101,	1101111111011111,	1,	1,	0,	1,	00010010011011111010100001001011
                 570,	0001010100010101,	1101111111011111,	0,	1,	0,	1,	00010010011011111010100001001011
                 578,	0001010100010101,	1101111111011111,	1,	1,	0,	1,	00010010011011111010100001001011
                 585,	0001010100010101,	1101111111011111,	0,	1,	0,	1,	00010010011011111010100001001011
                 593,	0001010100010101,	1101111111011111,	1,	1,	0,	1,	00010010011011111010100001001011
                 600,	0001010100010101,	1101111111011111,	0,	1,	0,	1,	00010010011011111010100001001011
                 608,	0001010100010101,	1101111111011111,	1,	1,	0,	1,	00010010011011111010100001001011
                 615,	0001010100010101,	1101111111011111,	0,	1,	0,	1,	00010010011011111010100001001011
                 623,	0001010100010101,	1101111111011111,	1,	1,	0,	1,	00010010011011111010100001001011
                 625,	1111111111111111,	1111111111111111,	1,	1,	0,	1,	00010010011011111010100001001011
                 630,	1111111111111111,	1111111111111111,	0,	1,	0,	1,	00010010011011111010100001001011
                 638,	1111111111111111,	1111111111111111,	1,	1,	0,	1,	00010010011011111010100001001011
                 638,	1111111111111111,	1111111111111111,	1,	1,	0,	1,	00010010011011100000000000000001
                 638,	1111111111111111,	1111111111111111,	1,	1,	0,	1,	11111111111111100000000000000001
                 645,	1111111111111111,	1111111111111111,	0,	1,	0,	1,	11111111111111100000000000000001
                 653,	1111111111111111,	1111111111111111,	1,	1,	0,	1,	11111111111111100000000000000001
                 660,	1111111111111111,	1111111111111111,	0,	1,	0,	1,	11111111111111100000000000000001
                 668,	1111111111111111,	1111111111111111,	1,	1,	0,	1,	11111111111111100000000000000001
                 675,	1111111111111111,	1111111111111111,	0,	1,	0,	1,	11111111111111100000000000000001
                 683,	1111111111111111,	1111111111111111,	1,	1,	0,	1,	11111111111111100000000000000001
                 690,	1111111111111111,	1111111111111111,	0,	1,	0,	1,	11111111111111100000000000000001
                 698,	1111111111111111,	1111111111111111,	1,	1,	0,	1,	11111111111111100000000000000001
                 705,	1111111111111111,	1111111111111111,	0,	1,	0,	1,	11111111111111100000000000000001
                 713,	1111111111111111,	1111111111111111,	1,	1,	0,	1,	11111111111111100000000000000001
                 720,	1111111111111111,	1111111111111111,	0,	1,	0,	1,	11111111111111100000000000000001
                 728,	1111111111111111,	1111111111111111,	1,	1,	0,	1,	11111111111111100000000000000001
                 735,	1111111111111111,	1111111111111111,	0,	1,	0,	1,	11111111111111100000000000000001
                 743,	1111111111111111,	1111111111111111,	1,	1,	0,	1,	11111111111111100000000000000001
                 750,	1111111111111111,	1111111111111111,	0,	1,	0,	1,	11111111111111100000000000000001
                 758,	1111111111111111,	1111111111111111,	1,	1,	0,	1,	11111111111111100000000000000001
                 765,	1111111111111111,	1111111111111111,	0,	1,	0,	1,	11111111111111100000000000000001
                 773,	1111111111111111,	1111111111111111,	1,	1,	0,	1,	11111111111111100000000000000001
                 780,	1111111111111111,	1111111111111111,	0,	1,	0,	1,	11111111111111100000000000000001
                 788,	1111111111111111,	1111111111111111,	1,	1,	0,	1,	11111111111111100000000000000001
                 795,	1111111111111111,	1111111111111111,	0,	1,	0,	1,	11111111111111100000000000000001
                 803,	1111111111111111,	1111111111111111,	1,	1,	0,	1,	11111111111111100000000000000001
                 810,	1111111111111111,	1111111111111111,	0,	1,	0,	1,	11111111111111100000000000000001
                 818,	1111111111111111,	1111111111111111,	1,	1,	0,	1,	11111111111111100000000000000001
                 825,	1111111111111111,	1111111111111111,	0,	1,	0,	1,	11111111111111100000000000000001
                 833,	1111111111111111,	1111111111111111,	1,	1,	0,	1,	11111111111111100000000000000001
                 840,	1111111111111111,	1111111111111111,	0,	1,	0,	1,	11111111111111100000000000000001
                 848,	1111111111111111,	1111111111111111,	1,	1,	0,	1,	11111111111111100000000000000001
                 855,	1111111111111111,	1111111111111111,	0,	1,	0,	1,	11111111111111100000000000000001
                 863,	1111111111111111,	1111111111111111,	1,	1,	0,	1,	11111111111111100000000000000001
                 870,	1111111111111111,	1111111111111111,	0,	1,	0,	1,	11111111111111100000000000000001
                 878,	1111111111111111,	1111111111111111,	1,	1,	0,	1,	11111111111111100000000000000001
                 885,	1111111111111111,	1111111111111111,	0,	1,	0,	1,	11111111111111100000000000000001
                 893,	1111111111111111,	1111111111111111,	1,	1,	0,	1,	11111111111111100000000000000001
                 900,	1111111111111111,	1111111111111111,	0,	1,	0,	1,	11111111111111100000000000000001
                 908,	1111111111111111,	1111111111111111,	1,	1,	0,	1,	11111111111111100000000000000001
                 915,	1111111111111111,	1111111111111111,	0,	1,	0,	1,	11111111111111100000000000000001
                 923,	1111111111111111,	1111111111111111,	1,	1,	0,	1,	11111111111111100000000000000001
                 930,	1111111111111111,	1111111111111111,	0,	1,	0,	1,	11111111111111100000000000000001
                 938,	1111111111111111,	1111111111111111,	1,	1,	0,	1,	11111111111111100000000000000001
                 945,	1111111111111111,	1111111111111111,	0,	1,	0,	1,	11111111111111100000000000000001
                 953,	1111111111111111,	1111111111111111,	1,	1,	0,	1,	11111111111111100000000000000001
                 960,	1111111111111111,	1111111111111111,	0,	1,	0,	1,	11111111111111100000000000000001
                 968,	1111111111111111,	1111111111111111,	1,	1,	0,	1,	11111111111111100000000000000001
                 975,	1111111111111111,	1111111111111111,	0,	1,	0,	1,	11111111111111100000000000000001
                 983,	1111111111111111,	1111111111111111,	1,	1,	0,	1,	11111111111111100000000000000001
                 990,	1111111111111111,	1111111111111111,	0,	1,	0,	1,	11111111111111100000000000000001
                 998,	1111111111111111,	1111111111111111,	1,	1,	0,	1,	11111111111111100000000000000001
Simulation complete via $finish(1) at time 1 US + 0
./array_tb.v:37 	    #1000  $finish; 
ncsim> exit
TOOL:	ncverilog	14.10-p001: Exiting on May 14, 2016 at 20:47:45 PDT  (total: 00:00:24)
