SMUL8/presyn.txt
Chronologic VCS simulator copyright 1991-2014
Contains Synopsys proprietary information.
Compiler version I-2014.03-2; Runtime version I-2014.03-2;  May 16 00:49 2016
		time,	clock,	mlier,	mcand,	start,	prodt_end,	valid
                   0,	0,	10110111,	11011110,	1,	xxxxxxxxxxxxxxxxx,	x
                  10,	1,	10110111,	11011110,	1,	00000000000000000,	0
                  20,	0,	10110111,	11011110,	1,	00000000000000000,	0
                  30,	1,	10110111,	11011110,	1,	00000000010110111,	0
                  40,	0,	10110111,	11011110,	1,	00000000010110111,	0
                  50,	1,	10110111,	11011110,	1,	00110111101011011,	0
                  60,	0,	10110111,	11011110,	1,	00110111101011011,	0
                  70,	1,	10110111,	11011110,	1,	01010011010101101,	0
                  80,	0,	10110111,	11011110,	1,	01010011010101101,	0
                  90,	1,	10110111,	11011110,	1,	01100001001010110,	0
                 100,	0,	10110111,	11011110,	1,	01100001001010110,	0
                 110,	1,	10110111,	11011110,	1,	00110000100101011,	0
                 120,	0,	10110111,	11011110,	1,	00110000100101011,	0
                 130,	1,	10110111,	11011110,	1,	01001111110010101,	0
                 140,	0,	10110111,	11011110,	1,	01001111110010101,	0
                 150,	1,	10110111,	11011110,	1,	01011111011001010,	0
                 160,	0,	10110111,	11011110,	1,	01011111011001010,	0
                 170,	1,	10110111,	11011110,	1,	00101111101100101,	0
                 180,	0,	10110111,	11011110,	1,	00101111101100101,	0
                 190,	1,	10110111,	11011110,	1,	01001111010110010,	1
                 200,	0,	10110111,	11011110,	1,	01001111010110010,	1
                 210,	1,	10110111,	11011110,	1,	01001111010110010,	1
                 220,	0,	10110111,	11011110,	1,	01001111010110010,	1
                 225,	0,	10110111,	00011110,	1,	01001111010110010,	1
                 230,	1,	10110111,	00011110,	1,	01001111010110010,	0
                 240,	0,	10110111,	00011110,	1,	01001111010110010,	0
                 245,	0,	10110111,	00011110,	0,	01001111010110010,	0
                 250,	1,	10110111,	00011110,	0,	00000000000000000,	0
                 260,	0,	10110111,	00011110,	0,	00000000000000000,	0
                 265,	0,	10110111,	00011110,	1,	00000000000000000,	0
                 270,	1,	10110111,	00011110,	1,	00000000010110111,	0
                 280,	0,	10110111,	00011110,	1,	00000000010110111,	0
                 290,	1,	10110111,	00011110,	1,	00000111101011011,	0
                 300,	0,	10110111,	00011110,	1,	00000111101011011,	0
                 310,	1,	10110111,	00011110,	1,	00001011010101101,	0
                 320,	0,	10110111,	00011110,	1,	00001011010101101,	0
                 330,	1,	10110111,	00011110,	1,	00001101001010110,	0
                 340,	0,	10110111,	00011110,	1,	00001101001010110,	0
                 350,	1,	10110111,	00011110,	1,	00000110100101011,	0
                 360,	0,	10110111,	00011110,	1,	00000110100101011,	0
                 370,	1,	10110111,	00011110,	1,	00001010110010101,	0
                 380,	0,	10110111,	00011110,	1,	00001010110010101,	0
                 390,	1,	10110111,	00011110,	1,	00001100111001010,	0
                 400,	0,	10110111,	00011110,	1,	00001100111001010,	0
                 410,	1,	10110111,	00011110,	1,	00000110011100101,	0
                 420,	0,	10110111,	00011110,	1,	00000110011100101,	0
                 430,	1,	10110111,	00011110,	1,	00001010101110010,	1
                 440,	0,	10110111,	00011110,	1,	00001010101110010,	1
                 450,	1,	10110111,	00011110,	1,	00001010101110010,	1
                 460,	0,	10110111,	00011110,	1,	00001010101110010,	1
                 465,	0,	10010101,	11011011,	1,	00001010101110010,	1
                 470,	1,	10010101,	11011011,	1,	00001010101110010,	0
                 480,	0,	10010101,	11011011,	1,	00001010101110010,	0
                 490,	1,	10010101,	11011011,	1,	00000000010010101,	0
                 500,	0,	10010101,	11011011,	1,	00000000010010101,	0
                 510,	1,	10010101,	11011011,	1,	00110110111001010,	0
                 520,	0,	10010101,	11011011,	1,	00110110111001010,	0
                 530,	1,	10010101,	11011011,	1,	00011011011100101,	0
                 540,	0,	10010101,	11011011,	1,	00011011011100101,	0
                 550,	1,	10010101,	11011011,	1,	01000100011110010,	0
                 560,	0,	10010101,	11011011,	1,	01000100011110010,	0
                 570,	1,	10010101,	11011011,	1,	00100010001111001,	0
                 580,	0,	10010101,	11011011,	1,	00100010001111001,	0
                 590,	1,	10010101,	11011011,	1,	01000111110111100,	0
                 600,	0,	10010101,	11011011,	1,	01000111110111100,	0
                 610,	1,	10010101,	11011011,	1,	00100011111011110,	0
                 620,	0,	10010101,	11011011,	1,	00100011111011110,	0
                 630,	1,	10010101,	11011011,	1,	00010001111101111,	0
                 640,	0,	10010101,	11011011,	1,	00010001111101111,	0
                 650,	1,	10010101,	11011011,	1,	00111111101110111,	1
                 660,	0,	10010101,	11011011,	1,	00111111101110111,	1
                 665,	0,	11101111,	11111100,	1,	00111111101110111,	1
                 670,	1,	11101111,	11111100,	1,	00111111101110111,	0
                 680,	0,	11101111,	11111100,	1,	00111111101110111,	0
                 690,	1,	11101111,	11111100,	1,	00000000011101111,	0
                 700,	0,	11101111,	11111100,	1,	00000000011101111,	0
                 710,	1,	11101111,	11111100,	1,	00111111001110111,	0
                 720,	0,	11101111,	11111100,	1,	00111111001110111,	0
                 730,	1,	11101111,	11111100,	1,	01011110100111011,	0
                 740,	0,	11101111,	11111100,	1,	01011110100111011,	0
                 750,	1,	11101111,	11111100,	1,	01101110010011101,	0
                 760,	0,	11101111,	11111100,	1,	01101110010011101,	0
                 770,	1,	11101111,	11111100,	1,	01110110001001110,	0
                 780,	0,	11101111,	11111100,	1,	01110110001001110,	0
                 790,	1,	11101111,	11111100,	1,	00111011000100111,	0
                 800,	0,	11101111,	11111100,	1,	00111011000100111,	0
                 810,	1,	11101111,	11111100,	1,	01011100100010011,	0
                 820,	0,	11101111,	11111100,	1,	01011100100010011,	0
                 830,	1,	11101111,	11111100,	1,	01101101010001001,	0
                 840,	0,	11101111,	11111100,	1,	01101101010001001,	0
                 850,	1,	11101111,	11111100,	1,	01110101101000100,	1
                 860,	0,	11101111,	11111100,	1,	01110101101000100,	1
                 870,	1,	11101111,	11111100,	1,	01110101101000100,	1
                 880,	0,	11101111,	11111100,	1,	01110101101000100,	1
                 890,	1,	11101111,	11111100,	1,	01110101101000100,	1
                 900,	0,	11101111,	11111100,	1,	01110101101000100,	1
                 910,	1,	11101111,	11111100,	1,	01110101101000100,	1
                 920,	0,	11101111,	11111100,	1,	01110101101000100,	1
                 930,	1,	11101111,	11111100,	1,	01110101101000100,	1
                 940,	0,	11101111,	11111100,	1,	01110101101000100,	1
                 950,	1,	11101111,	11111100,	1,	01110101101000100,	1
                 960,	0,	11101111,	11111100,	1,	01110101101000100,	1
                 970,	1,	11101111,	11111100,	1,	01110101101000100,	1
                 980,	0,	11101111,	11111100,	1,	01110101101000100,	1
                 990,	1,	11101111,	11111100,	1,	01110101101000100,	1
                1000,	0,	11101111,	11111100,	1,	01110101101000100,	1
                1010,	1,	11101111,	11111100,	1,	01110101101000100,	1
                1020,	0,	11101111,	11111100,	1,	01110101101000100,	1
                1030,	1,	11101111,	11111100,	1,	01110101101000100,	1
                1040,	0,	11101111,	11111100,	1,	01110101101000100,	1
                1050,	1,	11101111,	11111100,	1,	01110101101000100,	1
                1060,	0,	11101111,	11111100,	1,	01110101101000100,	1
                1070,	1,	11101111,	11111100,	1,	01110101101000100,	1
                1080,	0,	11101111,	11111100,	1,	01110101101000100,	1
                1090,	1,	11101111,	11111100,	1,	01110101101000100,	1
                1100,	0,	11101111,	11111100,	1,	01110101101000100,	1
                1110,	1,	11101111,	11111100,	1,	01110101101000100,	1
                1120,	0,	11101111,	11111100,	1,	01110101101000100,	1
                1130,	1,	11101111,	11111100,	1,	01110101101000100,	1
                1140,	0,	11101111,	11111100,	1,	01110101101000100,	1
                1150,	1,	11101111,	11111100,	1,	01110101101000100,	1
                1160,	0,	11101111,	11111100,	1,	01110101101000100,	1
                1170,	1,	11101111,	11111100,	1,	01110101101000100,	1
                1180,	0,	11101111,	11111100,	1,	01110101101000100,	1
                1190,	1,	11101111,	11111100,	1,	01110101101000100,	1
                1200,	0,	11101111,	11111100,	1,	01110101101000100,	1
                1210,	1,	11101111,	11111100,	1,	01110101101000100,	1
                1220,	0,	11101111,	11111100,	1,	01110101101000100,	1
                1230,	1,	11101111,	11111100,	1,	01110101101000100,	1
                1240,	0,	11101111,	11111100,	1,	01110101101000100,	1
                1250,	1,	11101111,	11111100,	1,	01110101101000100,	1
                1260,	0,	11101111,	11111100,	1,	01110101101000100,	1
                1270,	1,	11101111,	11111100,	1,	01110101101000100,	1
                1280,	0,	11101111,	11111100,	1,	01110101101000100,	1
                1290,	1,	11101111,	11111100,	1,	01110101101000100,	1
                1300,	0,	11101111,	11111100,	1,	01110101101000100,	1
                1310,	1,	11101111,	11111100,	1,	01110101101000100,	1
                1320,	0,	11101111,	11111100,	1,	01110101101000100,	1
                1330,	1,	11101111,	11111100,	1,	01110101101000100,	1
                1340,	0,	11101111,	11111100,	1,	01110101101000100,	1
                1350,	1,	11101111,	11111100,	1,	01110101101000100,	1
                1360,	0,	11101111,	11111100,	1,	01110101101000100,	1
                1370,	1,	11101111,	11111100,	1,	01110101101000100,	1
                1380,	0,	11101111,	11111100,	1,	01110101101000100,	1
                1390,	1,	11101111,	11111100,	1,	01110101101000100,	1
                1400,	0,	11101111,	11111100,	1,	01110101101000100,	1
                1410,	1,	11101111,	11111100,	1,	01110101101000100,	1
                1420,	0,	11101111,	11111100,	1,	01110101101000100,	1
                1430,	1,	11101111,	11111100,	1,	01110101101000100,	1
                1440,	0,	11101111,	11111100,	1,	01110101101000100,	1
                1450,	1,	11101111,	11111100,	1,	01110101101000100,	1
                1460,	0,	11101111,	11111100,	1,	01110101101000100,	1
                1470,	1,	11101111,	11111100,	1,	01110101101000100,	1
                1480,	0,	11101111,	11111100,	1,	01110101101000100,	1
                1490,	1,	11101111,	11111100,	1,	01110101101000100,	1
                1500,	0,	11101111,	11111100,	1,	01110101101000100,	1
                1510,	1,	11101111,	11111100,	1,	01110101101000100,	1
                1520,	0,	11101111,	11111100,	1,	01110101101000100,	1
                1530,	1,	11101111,	11111100,	1,	01110101101000100,	1
                1540,	0,	11101111,	11111100,	1,	01110101101000100,	1
                1550,	1,	11101111,	11111100,	1,	01110101101000100,	1
                1560,	0,	11101111,	11111100,	1,	01110101101000100,	1
                1570,	1,	11101111,	11111100,	1,	01110101101000100,	1
                1580,	0,	11101111,	11111100,	1,	01110101101000100,	1
                1590,	1,	11101111,	11111100,	1,	01110101101000100,	1
                1600,	0,	11101111,	11111100,	1,	01110101101000100,	1
                1610,	1,	11101111,	11111100,	1,	01110101101000100,	1
                1620,	0,	11101111,	11111100,	1,	01110101101000100,	1
                1630,	1,	11101111,	11111100,	1,	01110101101000100,	1
                1640,	0,	11101111,	11111100,	1,	01110101101000100,	1
                1650,	1,	11101111,	11111100,	1,	01110101101000100,	1
                1660,	0,	11101111,	11111100,	1,	01110101101000100,	1
                1670,	1,	11101111,	11111100,	1,	01110101101000100,	1
                1680,	0,	11101111,	11111100,	1,	01110101101000100,	1
                1690,	1,	11101111,	11111100,	1,	01110101101000100,	1
                1700,	0,	11101111,	11111100,	1,	01110101101000100,	1
                1710,	1,	11101111,	11111100,	1,	01110101101000100,	1
                1720,	0,	11101111,	11111100,	1,	01110101101000100,	1
                1730,	1,	11101111,	11111100,	1,	01110101101000100,	1
                1740,	0,	11101111,	11111100,	1,	01110101101000100,	1
                1750,	1,	11101111,	11111100,	1,	01110101101000100,	1
                1760,	0,	11101111,	11111100,	1,	01110101101000100,	1
                1770,	1,	11101111,	11111100,	1,	01110101101000100,	1
                1780,	0,	11101111,	11111100,	1,	01110101101000100,	1
                1790,	1,	11101111,	11111100,	1,	01110101101000100,	1
                1800,	0,	11101111,	11111100,	1,	01110101101000100,	1
                1810,	1,	11101111,	11111100,	1,	01110101101000100,	1
                1820,	0,	11101111,	11111100,	1,	01110101101000100,	1
                1830,	1,	11101111,	11111100,	1,	01110101101000100,	1
                1840,	0,	11101111,	11111100,	1,	01110101101000100,	1
                1850,	1,	11101111,	11111100,	1,	01110101101000100,	1
                1860,	0,	11101111,	11111100,	1,	01110101101000100,	1
                1870,	1,	11101111,	11111100,	1,	01110101101000100,	1
                1880,	0,	11101111,	11111100,	1,	01110101101000100,	1
                1890,	1,	11101111,	11111100,	1,	01110101101000100,	1
                1900,	0,	11101111,	11111100,	1,	01110101101000100,	1
                1910,	1,	11101111,	11111100,	1,	01110101101000100,	1
                1920,	0,	11101111,	11111100,	1,	01110101101000100,	1
                1930,	1,	11101111,	11111100,	1,	01110101101000100,	1
                1940,	0,	11101111,	11111100,	1,	01110101101000100,	1
                1950,	1,	11101111,	11111100,	1,	01110101101000100,	1
                1960,	0,	11101111,	11111100,	1,	01110101101000100,	1
                1970,	1,	11101111,	11111100,	1,	01110101101000100,	1
                1980,	0,	11101111,	11111100,	1,	01110101101000100,	1
                1990,	1,	11101111,	11111100,	1,	01110101101000100,	1
                2000,	0,	11101111,	11111100,	1,	01110101101000100,	1
                2010,	1,	11101111,	11111100,	1,	01110101101000100,	1
                2020,	0,	11101111,	11111100,	1,	01110101101000100,	1
                2030,	1,	11101111,	11111100,	1,	01110101101000100,	1
                2040,	0,	11101111,	11111100,	1,	01110101101000100,	1
                2050,	1,	11101111,	11111100,	1,	01110101101000100,	1
                2060,	0,	11101111,	11111100,	1,	01110101101000100,	1
                2070,	1,	11101111,	11111100,	1,	01110101101000100,	1
                2080,	0,	11101111,	11111100,	1,	01110101101000100,	1
                2090,	1,	11101111,	11111100,	1,	01110101101000100,	1
                2100,	0,	11101111,	11111100,	1,	01110101101000100,	1
                2110,	1,	11101111,	11111100,	1,	01110101101000100,	1
                2120,	0,	11101111,	11111100,	1,	01110101101000100,	1
                2130,	1,	11101111,	11111100,	1,	01110101101000100,	1
                2140,	0,	11101111,	11111100,	1,	01110101101000100,	1
                2150,	1,	11101111,	11111100,	1,	01110101101000100,	1
                2160,	0,	11101111,	11111100,	1,	01110101101000100,	1
                2170,	1,	11101111,	11111100,	1,	01110101101000100,	1
                2180,	0,	11101111,	11111100,	1,	01110101101000100,	1
                2190,	1,	11101111,	11111100,	1,	01110101101000100,	1
                2200,	0,	11101111,	11111100,	1,	01110101101000100,	1
                2210,	1,	11101111,	11111100,	1,	01110101101000100,	1
                2220,	0,	11101111,	11111100,	1,	01110101101000100,	1
                2230,	1,	11101111,	11111100,	1,	01110101101000100,	1
                2240,	0,	11101111,	11111100,	1,	01110101101000100,	1
                2250,	1,	11101111,	11111100,	1,	01110101101000100,	1
                2260,	0,	11101111,	11111100,	1,	01110101101000100,	1
                2270,	1,	11101111,	11111100,	1,	01110101101000100,	1
                2280,	0,	11101111,	11111100,	1,	01110101101000100,	1
                2290,	1,	11101111,	11111100,	1,	01110101101000100,	1
                2300,	0,	11101111,	11111100,	1,	01110101101000100,	1
                2310,	1,	11101111,	11111100,	1,	01110101101000100,	1
                2320,	0,	11101111,	11111100,	1,	01110101101000100,	1
                2330,	1,	11101111,	11111100,	1,	01110101101000100,	1
                2340,	0,	11101111,	11111100,	1,	01110101101000100,	1
                2350,	1,	11101111,	11111100,	1,	01110101101000100,	1
                2360,	0,	11101111,	11111100,	1,	01110101101000100,	1
                2370,	1,	11101111,	11111100,	1,	01110101101000100,	1
                2380,	0,	11101111,	11111100,	1,	01110101101000100,	1
                2390,	1,	11101111,	11111100,	1,	01110101101000100,	1
$finish called from file "seq_tb.v", line 42.
$finish at simulation time               240000
           V C S   S i m u l a t i o n   R e p o r t 
Time: 2400000 ps
CPU Time:      0.300 seconds;       Data structure size:   0.1Mb
Mon May 16 00:49:18 2016
