SMUL32/presyn.txt
Chronologic VCS simulator copyright 1991-2014
Contains Synopsys proprietary information.
Compiler version I-2014.03-2; Runtime version I-2014.03-2;  May 16 00:48 2016
		time,	clock,	mlier,	mcand,	start,	prodt_end,	valid
                   0,	0,	11110111111101111111011111110111,	11010111110101111101011111010111,	1,	xxxxxxxxxxxxxxxxxxxxxxxxxxxxxxxxxxxxxxxxxxxxxxxxxxxxxxxxxxxxxxxxx,	x
                  10,	1,	11110111111101111111011111110111,	11010111110101111101011111010111,	1,	00000000000000000000000000000000000000000000000000000000000000000,	0
                  20,	0,	11110111111101111111011111110111,	11010111110101111101011111010111,	1,	00000000000000000000000000000000000000000000000000000000000000000,	0
                  30,	1,	11110111111101111111011111110111,	11010111110101111101011111010111,	1,	00000000000000000000000000000000011110111111101111111011111110111,	0
                  40,	0,	11110111111101111111011111110111,	11010111110101111101011111010111,	1,	00000000000000000000000000000000011110111111101111111011111110111,	0
                  50,	1,	11110111111101111111011111110111,	11010111110101111101011111010111,	1,	00110101111101011111010111110101111111011111110111111101111111011,	0
                  60,	0,	11110111111101111111011111110111,	11010111110101111101011111010111,	1,	00110101111101011111010111110101111111011111110111111101111111011,	0
                  70,	1,	11110111111101111111011111110111,	11010111110101111101011111010111,	1,	01010000111100001111000011110000101111101111111011111110111111101,	0
                  80,	0,	11110111111101111111011111110111,	11010111110101111101011111010111,	1,	01010000111100001111000011110000101111101111111011111110111111101,	0
                  90,	1,	11110111111101111111011111110111,	11010111110101111101011111010111,	1,	01011110011011100110111001101110000111110111111101111111011111110,	0
                 100,	0,	11110111111101111111011111110111,	11010111110101111101011111010111,	1,	01011110011011100110111001101110000111110111111101111111011111110,	0
                 110,	1,	11110111111101111111011111110111,	11010111110101111101011111010111,	1,	00101111001101110011011100110111000011111011111110111111101111111,	0
                 120,	0,	11110111111101111111011111110111,	11010111110101111101011111010111,	1,	00101111001101110011011100110111000011111011111110111111101111111,	0
                 130,	1,	11110111111101111111011111110111,	11010111110101111101011111010111,	1,	01001101100100011001000110010001010001111101111111011111110111111,	0
                 140,	0,	11110111111101111111011111110111,	11010111110101111101011111010111,	1,	01001101100100011001000110010001010001111101111111011111110111111,	0
                 150,	1,	11110111111101111111011111110111,	11010111110101111101011111010111,	1,	01011100101111101011111010111110011000111110111111101111111011111,	0
                 160,	0,	11110111111101111111011111110111,	11010111110101111101011111010111,	1,	01011100101111101011111010111110011000111110111111101111111011111,	0
                 170,	1,	11110111111101111111011111110111,	11010111110101111101011111010111,	1,	01100100010101010101010101010100111100011111011111110111111101111,	0
                 180,	0,	11110111111101111111011111110111,	11010111110101111101011111010111,	1,	01100100010101010101010101010100111100011111011111110111111101111,	0
                 190,	1,	11110111111101111111011111110111,	11010111110101111101011111010111,	1,	01101000001000001010000010100000001110001111101111111011111110111,	0
                 200,	0,	11110111111101111111011111110111,	11010111110101111101011111010111,	1,	01101000001000001010000010100000001110001111101111111011111110111,	0
                 210,	1,	11110111111101111111011111110111,	11010111110101111101011111010111,	1,	01101010000001100100011001000101110111000111110111111101111111011,	0
                 220,	0,	11110111111101111111011111110111,	11010111110101111101011111010111,	1,	01101010000001100100011001000101110111000111110111111101111111011,	0
                 230,	1,	11110111111101111111011111110111,	11010111110101111101011111010111,	1,	01101010111110010001100100011000101011100011111011111110111111101,	0
                 240,	0,	11110111111101111111011111110111,	11010111110101111101011111010111,	1,	01101010111110010001100100011000101011100011111011111110111111101,	0
                 250,	1,	11110111111101111111011111110111,	11010111110101111101011111010111,	1,	01101011011100101000001010000010000101110001111101111111011111110,	0
                 260,	0,	11110111111101111111011111110111,	11010111110101111101011111010111,	1,	01101011011100101000001010000010000101110001111101111111011111110,	0
                 270,	1,	11110111111101111111011111110111,	11010111110101111101011111010111,	1,	00110101101110010100000101000001000010111000111110111111101111111,	0
                 280,	0,	11110111111101111111011111110111,	11010111110101111101011111010111,	1,	00110101101110010100000101000001000010111000111110111111101111111,	0
                 290,	1,	11110111111101111111011111110111,	11010111110101111101011111010111,	1,	01010000110100101001011010010110010001011100011111011111110111111,	0
                 300,	0,	11110111111101111111011111110111,	11010111110101111101011111010111,	1,	01010000110100101001011010010110010001011100011111011111110111111,	0
                 310,	1,	11110111111101111111011111110111,	11010111110101111101011111010111,	1,	01011110010111110100000101000000111000101110001111101111111011111,	0
                 320,	0,	11110111111101111111011111110111,	11010111110101111101011111010111,	1,	01011110010111110100000101000000111000101110001111101111111011111,	0
                 330,	1,	11110111111101111111011111110111,	11010111110101111101011111010111,	1,	01100101001001011001011010010110001100010111000111110111111101111,	0
                 340,	0,	11110111111101111111011111110111,	11010111110101111101011111010111,	1,	01100101001001011001011010010110001100010111000111110111111101111,	0
                 350,	1,	11110111111101111111011111110111,	11010111110101111101011111010111,	1,	01101000100010001100000101000000110110001011100011111011111110111,	0
                 360,	0,	11110111111101111111011111110111,	11010111110101111101011111010111,	1,	01101000100010001100000101000000110110001011100011111011111110111,	0
                 370,	1,	11110111111101111111011111110111,	11010111110101111101011111010111,	1,	01101010001110100101011010010110001011000101110001111101111111011,	0
                 380,	0,	11110111111101111111011111110111,	11010111110101111101011111010111,	1,	01101010001110100101011010010110001011000101110001111101111111011,	0
                 390,	1,	11110111111101111111011111110111,	11010111110101111101011111010111,	1,	01101011000100110010000101000000110101100010111000111110111111101,	0
                 400,	0,	11110111111101111111011111110111,	11010111110101111101011111010111,	1,	01101011000100110010000101000000110101100010111000111110111111101,	0
                 410,	1,	11110111111101111111011111110111,	11010111110101111101011111010111,	1,	01101011011111111000011010010110001010110001011100011111011111110,	0
                 420,	0,	11110111111101111111011111110111,	11010111110101111101011111010111,	1,	01101011011111111000011010010110001010110001011100011111011111110,	0
                 430,	1,	11110111111101111111011111110111,	11010111110101111101011111010111,	1,	00110101101111111100001101001011000101011000101110001111101111111,	0
                 440,	0,	11110111111101111111011111110111,	11010111110101111101011111010111,	1,	00110101101111111100001101001011000101011000101110001111101111111,	0
                 450,	1,	11110111111101111111011111110111,	11010111110101111101011111010111,	1,	01010000110101011101011110011011010010101100010111000111110111111,	0
                 460,	0,	11110111111101111111011111110111,	11010111110101111101011111010111,	1,	01010000110101011101011110011011010010101100010111000111110111111,	0
                 470,	1,	11110111111101111111011111110111,	11010111110101111101011111010111,	1,	01011110011000001110000111000011011001010110001011100011111011111,	0
                 480,	0,	11110111111101111111011111110111,	11010111110101111101011111010111,	1,	01011110011000001110000111000011011001010110001011100011111011111,	0
                 490,	1,	11110111111101111111011111110111,	11010111110101111101011111010111,	1,	01100101001001100110011011010111011100101011000101110001111101111,	0
                 500,	0,	11110111111101111111011111110111,	11010111110101111101011111010111,	1,	01100101001001100110011011010111011100101011000101110001111101111,	0
                 510,	1,	11110111111101111111011111110111,	11010111110101111101011111010111,	1,	01101000100010010010100101100001011110010101100010111000111110111,	0
                 520,	0,	11110111111101111111011111110111,	11010111110101111101011111010111,	1,	01101000100010010010100101100001011110010101100010111000111110111,	0
                 530,	1,	11110111111101111111011111110111,	11010111110101111101011111010111,	1,	01101010001110101000101010100110011111001010110001011100011111011,	0
                 540,	0,	11110111111101111111011111110111,	11010111110101111101011111010111,	1,	01101010001110101000101010100110011111001010110001011100011111011,	0
                 550,	1,	11110111111101111111011111110111,	11010111110101111101011111010111,	1,	01101011000100110011101101001000111111100101011000101110001111101,	0
                 560,	0,	11110111111101111111011111110111,	11010111110101111101011111010111,	1,	01101011000100110011101101001000111111100101011000101110001111101,	0
                 570,	1,	11110111111101111111011111110111,	11010111110101111101011111010111,	1,	01101011011111111001001110011010001111110010101100010111000111110,	0
                 580,	0,	11110111111101111111011111110111,	11010111110101111101011111010111,	1,	01101011011111111001001110011010001111110010101100010111000111110,	0
                 590,	1,	11110111111101111111011111110111,	11010111110101111101011111010111,	1,	00110101101111111100100111001101000111111001010110001011100011111,	0
                 600,	0,	11110111111101111111011111110111,	11010111110101111101011111010111,	1,	00110101101111111100100111001101000111111001010110001011100011111,	0
                 610,	1,	11110111111101111111011111110111,	11010111110101111101011111010111,	1,	01010000110101011101101011011100010011111100101011000101110001111,	0
                 620,	0,	11110111111101111111011111110111,	11010111110101111101011111010111,	1,	01010000110101011101101011011100010011111100101011000101110001111,	0
                 630,	1,	11110111111101111111011111110111,	11010111110101111101011111010111,	1,	01011110011000001110001101100011111001111110010101100010111000111,	0
                 640,	0,	11110111111101111111011111110111,	11010111110101111101011111010111,	1,	01011110011000001110001101100011111001111110010101100010111000111,	0
                 650,	1,	11110111111101111111011111110111,	11010111110101111101011111010111,	1,	01100101001001100110011110100111101100111111001010110001011100011,	0
                 660,	0,	11110111111101111111011111110111,	11010111110101111101011111010111,	1,	01100101001001100110011110100111101100111111001010110001011100011,	0
                 670,	1,	11110111111101111111011111110111,	11010111110101111101011111010111,	1,	01101000100010010010100111001001100110011111100101011000101110001,	1
                 680,	0,	11110111111101111111011111110111,	11010111110101111101011111010111,	1,	01101000100010010010100111001001100110011111100101011000101110001,	1
                 690,	1,	11110111111101111111011111110111,	11010111110101111101011111010111,	1,	01101000100010010010100111001001100110011111100101011000101110001,	1
                 700,	0,	11110111111101111111011111110111,	11010111110101111101011111010111,	1,	01101000100010010010100111001001100110011111100101011000101110001,	1
                 710,	1,	11110111111101111111011111110111,	11010111110101111101011111010111,	1,	01101000100010010010100111001001100110011111100101011000101110001,	1
                 720,	0,	11110111111101111111011111110111,	11010111110101111101011111010111,	1,	01101000100010010010100111001001100110011111100101011000101110001,	1
                 725,	0,	10111011101110111110111010111011,	11011101110110000101110111011101,	1,	01101000100010010010100111001001100110011111100101011000101110001,	1
                 730,	1,	10111011101110111110111010111011,	11011101110110000101110111011101,	1,	01101000100010010010100111001001100110011111100101011000101110001,	0
                 740,	0,	10111011101110111110111010111011,	11011101110110000101110111011101,	1,	01101000100010010010100111001001100110011111100101011000101110001,	0
                 750,	1,	10111011101110111110111010111011,	11011101110110000101110111011101,	1,	00000000000000000000000000000000010111011101110111110111010111011,	0
                 760,	0,	10111011101110111110111010111011,	11011101110110000101110111011101,	1,	00000000000000000000000000000000010111011101110111110111010111011,	0
                 770,	1,	10111011101110111110111010111011,	11011101110110000101110111011101,	1,	00110111011101100001011101110111011011101110111011111011101011101,	0
                 780,	0,	10111011101110111110111010111011,	11011101110110000101110111011101,	1,	00110111011101100001011101110111011011101110111011111011101011101,	0
                 790,	1,	10111011101110111110111010111011,	11011101110110000101110111011101,	1,	01010011001100010010001100110010111101110111011101111101110101110,	0
                 800,	0,	10111011101110111110111010111011,	11011101110110000101110111011101,	1,	01010011001100010010001100110010111101110111011101111101110101110,	0
                 810,	1,	10111011101110111110111010111011,	11011101110110000101110111011101,	1,	00101001100110001001000110011001011110111011101110111110111010111,	0
                 820,	0,	10111011101110111110111010111011,	11011101110110000101110111011101,	1,	00101001100110001001000110011001011110111011101110111110111010111,	0
                 830,	1,	10111011101110111110111010111011,	11011101110110000101110111011101,	1,	01001100010000100110000001000011111111011101110111011111011101011,	0
                 840,	0,	10111011101110111110111010111011,	11011101110110000101110111011101,	1,	01001100010000100110000001000011111111011101110111011111011101011,	0
                 850,	1,	10111011101110111110111010111011,	11011101110110000101110111011101,	1,	01011101100101110100011110011001001111101110111011101111101110101,	0
                 860,	0,	10111011101110111110111010111011,	11011101110110000101110111011101,	1,	01011101100101110100011110011001001111101110111011101111101110101,	0
                 870,	1,	10111011101110111110111010111011,	11011101110110000101110111011101,	1,	01100110010000011011101101000011110111110111011101110111110111010,	0
                 880,	0,	10111011101110111110111010111011,	11011101110110000101110111011101,	1,	01100110010000011011101101000011110111110111011101110111110111010,	0
                 890,	1,	10111011101110111110111010111011,	11011101110110000101110111011101,	1,	00110011001000001101110110100001111011111011101110111011111011101,	0
                 900,	0,	10111011101110111110111010111011,	11011101110110000101110111011101,	1,	00110011001000001101110110100001111011111011101110111011111011101,	0
                 910,	1,	10111011101110111110111010111011,	11011101110110000101110111011101,	1,	01010001000001101000011001001000001101111101110111011101111101110,	0
                 920,	0,	10111011101110111110111010111011,	11011101110110000101110111011101,	1,	01010001000001101000011001001000001101111101110111011101111101110,	0
                 930,	1,	10111011101110111110111010111011,	11011101110110000101110111011101,	1,	00101000100000110100001100100100000110111110111011101110111110111,	0
                 940,	0,	10111011101110111110111010111011,	11011101110110000101110111011101,	1,	00101000100000110100001100100100000110111110111011101110111110111,	0
                 950,	1,	10111011101110111110111010111011,	11011101110110000101110111011101,	1,	01001011101101111011100100001001010011011111011101110111011111011,	0
                 960,	0,	10111011101110111110111010111011,	11011101110110000101110111011101,	1,	01001011101101111011100100001001010011011111011101110111011111011,	0
                 970,	1,	10111011101110111110111010111011,	11011101110110000101110111011101,	1,	01011101010100011111001111111011111001101111101110111011101111101,	0
                 980,	0,	10111011101110111110111010111011,	11011101110110000101110111011101,	1,	01011101010100011111001111111011111001101111101110111011101111101,	0
                 990,	1,	10111011101110111110111010111011,	11011101110110000101110111011101,	1,	01100110000111110001000101110101001100110111110111011101110111110,	0
                1000,	0,	10111011101110111110111010111011,	11011101110110000101110111011101,	1,	01100110000111110001000101110101001100110111110111011101110111110,	0
                1010,	1,	10111011101110111110111010111011,	11011101110110000101110111011101,	1,	00110011000011111000100010111010100110011011111011101110111011111,	0
                1020,	0,	10111011101110111110111010111011,	11011101110110000101110111011101,	1,	00110011000011111000100010111010100110011011111011101110111011111,	0
                1030,	1,	10111011101110111110111010111011,	11011101110110000101110111011101,	1,	01010000111111011101101111010100100011001101111101110111011101111,	0
                1040,	0,	10111011101110111110111010111011,	11011101110110000101110111011101,	1,	01010000111111011101101111010100100011001101111101110111011101111,	0
                1050,	1,	10111011101110111110111010111011,	11011101110110000101110111011101,	1,	01011111111101010000010101100001100001100110111110111011101110111,	0
                1060,	0,	10111011101110111110111010111011,	11011101110110000101110111011101,	1,	01011111111101010000010101100001100001100110111110111011101110111,	0
                1070,	1,	10111011101110111110111010111011,	11011101110110000101110111011101,	1,	01100111011100001001101000101000000000110011011111011101110111011,	0
                1080,	0,	10111011101110111110111010111011,	11011101110110000101110111011101,	1,	01100111011100001001101000101000000000110011011111011101110111011,	0
                1090,	1,	10111011101110111110111010111011,	11011101110110000101110111011101,	1,	01101011001011100110010010001011010000011001101111101110111011101,	0
                1100,	0,	10111011101110111110111010111011,	11011101110110000101110111011101,	1,	01101011001011100110010010001011010000011001101111101110111011101,	0
                1110,	1,	10111011101110111110111010111011,	11011101110110000101110111011101,	1,	01101101000011010100100110111100111000001100110111110111011101110,	0
                1120,	0,	10111011101110111110111010111011,	11011101110110000101110111011101,	1,	01101101000011010100100110111100111000001100110111110111011101110,	0
                1130,	1,	10111011101110111110111010111011,	11011101110110000101110111011101,	1,	00110110100001101010010011011110011100000110011011111011101110111,	0
                1140,	0,	10111011101110111110111010111011,	11011101110110000101110111011101,	1,	00110110100001101010010011011110011100000110011011111011101110111,	0
                1150,	1,	10111011101110111110111010111011,	11011101110110000101110111011101,	1,	01010010101110010110100111100110011110000011001101111101110111011,	0
                1160,	0,	10111011101110111110111010111011,	11011101110110000101110111011101,	1,	01010010101110010110100111100110011110000011001101111101110111011,	0
                1170,	1,	10111011101110111110111010111011,	11011101110110000101110111011101,	1,	01100000110100101100110001101010011111000001100110111110111011101,	0
                1180,	0,	10111011101110111110111010111011,	11011101110110000101110111011101,	1,	01100000110100101100110001101010011111000001100110111110111011101,	0
                1190,	1,	10111011101110111110111010111011,	11011101110110000101110111011101,	1,	01100111110111110111110110101100011111100000110011011111011101110,	0
                1200,	0,	10111011101110111110111010111011,	11011101110110000101110111011101,	1,	01100111110111110111110110101100011111100000110011011111011101110,	0
                1210,	1,	10111011101110111110111010111011,	11011101110110000101110111011101,	1,	00110011111011111011111011010110001111110000011001101111101110111,	0
                1220,	0,	10111011101110111110111010111011,	11011101110110000101110111011101,	1,	00110011111011111011111011010110001111110000011001101111101110111,	0
                1230,	1,	10111011101110111110111010111011,	11011101110110000101110111011101,	1,	01010001011011011111011011100010010111111000001100110111110111011,	0
                1240,	0,	10111011101110111110111010111011,	11011101110110000101110111011101,	1,	01010001011011011111011011100010010111111000001100110111110111011,	0
                1250,	1,	10111011101110111110111010111011,	11011101110110000101110111011101,	1,	01100000001011010001001011101000011011111100000110011011111011101,	0
                1260,	0,	10111011101110111110111010111011,	11011101110110000101110111011101,	1,	01100000001011010001001011101000011011111100000110011011111011101,	0
                1270,	1,	10111011101110111110111010111011,	11011101110110000101110111011101,	1,	01100111100011001010000011101011011101111110000011001101111101110,	0
                1280,	0,	10111011101110111110111010111011,	11011101110110000101110111011101,	1,	01100111100011001010000011101011011101111110000011001101111101110,	0
                1290,	1,	10111011101110111110111010111011,	11011101110110000101110111011101,	1,	00110011110001100101000001110101101110111111000001100110111110111,	0
                1300,	0,	10111011101110111110111010111011,	11011101110110000101110111011101,	1,	00110011110001100101000001110101101110111111000001100110111110111,	0
                1310,	1,	10111011101110111110111010111011,	11011101110110000101110111011101,	1,	01010001010110010011111110110010000111011111100000110011011111011,	0
                1320,	0,	10111011101110111110111010111011,	11011101110110000101110111011101,	1,	01010001010110010011111110110010000111011111100000110011011111011,	0
                1325,	0,	10111011101000111011101110111000,	11011101110111110100110111011101,	1,	01010001010110010011111110110010000111011111100000110011011111011,	0
                1330,	1,	10111011101000111011101110111000,	11011101110111110100110111011101,	1,	01100000001000101011011101010000010011101111110000011001101111101,	0
                1340,	0,	10111011101000111011101110111000,	11011101110111110100110111011101,	1,	01100000001000101011011101010000010011101111110000011001101111101,	0
                1350,	1,	10111011101000111011101110111000,	11011101110111110100110111011101,	1,	01100111100001110111001100011111011001110111111000001100110111110,	0
                1360,	0,	10111011101000111011101110111000,	11011101110111110100110111011101,	1,	01100111100001110111001100011111011001110111111000001100110111110,	0
                1370,	1,	10111011101000111011101110111000,	11011101110111110100110111011101,	1,	00110011110000111011100110001111101100111011111100000110011011111,	0
                1380,	0,	10111011101000111011101110111000,	11011101110111110100110111011101,	1,	00110011110000111011100110001111101100111011111100000110011011111,	0
                1390,	1,	10111011101000111011101110111000,	11011101110111110100110111011101,	1,	01010001010101111111010000111111000110011101111110000011001101111,	1
                1400,	0,	10111011101000111011101110111000,	11011101110111110100110111011101,	1,	01010001010101111111010000111111000110011101111110000011001101111,	1
                1410,	1,	10111011101000111011101110111000,	11011101110111110100110111011101,	1,	01010001010101111111010000111111000110011101111110000011001101111,	0
                1420,	0,	10111011101000111011101110111000,	11011101110111110100110111011101,	1,	01010001010101111111010000111111000110011101111110000011001101111,	0
                1430,	1,	10111011101000111011101110111000,	11011101110111110100110111011101,	1,	00000000000000000000000000000000010111011101000111011101110111000,	0
                1440,	0,	10111011101000111011101110111000,	11011101110111110100110111011101,	1,	00000000000000000000000000000000010111011101000111011101110111000,	0
                1450,	1,	10111011101000111011101110111000,	11011101110111110100110111011101,	1,	00000000000000000000000000000000001011101110100011101110111011100,	0
                1460,	0,	10111011101000111011101110111000,	11011101110111110100110111011101,	1,	00000000000000000000000000000000001011101110100011101110111011100,	0
                1470,	1,	10111011101000111011101110111000,	11011101110111110100110111011101,	1,	00000000000000000000000000000000000101110111010001110111011101110,	0
                1480,	0,	10111011101000111011101110111000,	11011101110111110100110111011101,	1,	00000000000000000000000000000000000101110111010001110111011101110,	0
                1490,	1,	10111011101000111011101110111000,	11011101110111110100110111011101,	1,	00000000000000000000000000000000000010111011101000111011101110111,	0
                1500,	0,	10111011101000111011101110111000,	11011101110111110100110111011101,	1,	00000000000000000000000000000000000010111011101000111011101110111,	0
                1510,	1,	10111011101000111011101110111000,	11011101110111110100110111011101,	1,	00110111011101111101001101110111010001011101110100011101110111011,	0
                1520,	0,	10111011101000111011101110111000,	11011101110111110100110111011101,	1,	00110111011101111101001101110111010001011101110100011101110111011,	0
                1530,	1,	10111011101000111011101110111000,	11011101110111110100110111011101,	1,	01010011001100111011110100110010111000101110111010001110111011101,	0
                1540,	0,	10111011101000111011101110111000,	11011101110111110100110111011101,	1,	01010011001100111011110100110010111000101110111010001110111011101,	0
                1550,	1,	10111011101000111011101110111000,	11011101110111110100110111011101,	1,	01100001000100011011001000010000101100010111011101000111011101110,	0
                1560,	0,	10111011101000111011101110111000,	11011101110111110100110111011101,	1,	01100001000100011011001000010000101100010111011101000111011101110,	0
                1570,	1,	10111011101000111011101110111000,	11011101110111110100110111011101,	1,	00110000100010001101100100001000010110001011101110100011101110111,	0
                1580,	0,	10111011101000111011101110111000,	11011101110111110100110111011101,	1,	00110000100010001101100100001000010110001011101110100011101110111,	0
                1590,	1,	10111011101000111011101110111000,	11011101110111110100110111011101,	1,	01001111101111000011111111111011011011000101110111010001110111011,	0
                1600,	0,	10111011101000111011101110111000,	11011101110111110100110111011101,	1,	01001111101111000011111111111011011011000101110111010001110111011,	0
                1610,	1,	10111011101000111011101110111000,	11011101110111110100110111011101,	1,	01011111010101011111001101110100111101100010111011101000111011101,	0
                1620,	0,	10111011101000111011101110111000,	11011101110111110100110111011101,	1,	01011111010101011111001101110100111101100010111011101000111011101,	0
                1630,	1,	10111011101000111011101110111000,	11011101110111110100110111011101,	1,	01100111001000101100110100110001101110110001011101110100011101110,	0
                1640,	0,	10111011101000111011101110111000,	11011101110111110100110111011101,	1,	01100111001000101100110100110001101110110001011101110100011101110,	0
                1650,	1,	10111011101000111011101110111000,	11011101110111110100110111011101,	1,	00110011100100010110011010011000110111011000101110111010001110111,	0
                1660,	0,	10111011101000111011101110111000,	11011101110111110100110111011101,	1,	00110011100100010110011010011000110111011000101110111010001110111,	0
                1670,	1,	10111011101000111011101110111000,	11011101110111110100110111011101,	1,	01010001010000001000011011000011101011101100010111011101000111011,	0
                1680,	0,	10111011101000111011101110111000,	11011101110111110100110111011101,	1,	01010001010000001000011011000011101011101100010111011101000111011,	0
                1690,	1,	10111011101000111011101110111000,	11011101110111110100110111011101,	1,	01100000000110000001011011011001000101110110001011101110100011101,	0
                1700,	0,	10111011101000111011101110111000,	11011101110111110100110111011101,	1,	01100000000110000001011011011001000101110110001011101110100011101,	0
                1710,	1,	10111011101000111011101110111000,	11011101110111110100110111011101,	1,	01100111100000111101111011100011110010111011000101110111010001110,	0
                1720,	0,	10111011101000111011101110111000,	11011101110111110100110111011101,	1,	01100111100000111101111011100011110010111011000101110111010001110,	0
                1730,	1,	10111011101000111011101110111000,	11011101110111110100110111011101,	1,	00110011110000011110111101110001111001011101100010111011101000111,	0
                1740,	0,	10111011101000111011101110111000,	11011101110111110100110111011101,	1,	00110011110000011110111101110001111001011101100010111011101000111,	0
                1750,	1,	10111011101000111011101110111000,	11011101110111110100110111011101,	1,	01010001010110001100101100110000001100101110110001011101110100011,	0
                1760,	0,	10111011101000111011101110111000,	11011101110111110100110111011101,	1,	01010001010110001100101100110000001100101110110001011101110100011,	0
                1770,	1,	10111011101000111011101110111000,	11011101110111110100110111011101,	1,	01100000001001000011100100001111010110010111011000101110111010001,	0
                1780,	0,	10111011101000111011101110111000,	11011101110111110100110111011101,	1,	01100000001001000011100100001111010110010111011000101110111010001,	0
                1790,	1,	10111011101000111011101110111000,	11011101110111110100110111011101,	1,	01100111100010011110111111111110111011001011101100010111011101000,	0
                1800,	0,	10111011101000111011101110111000,	11011101110111110100110111011101,	1,	01100111100010011110111111111110111011001011101100010111011101000,	0
                1810,	1,	10111011101000111011101110111000,	11011101110111110100110111011101,	1,	00110011110001001111011111111111011101100101110110001011101110100,	0
                1820,	0,	10111011101000111011101110111000,	11011101110111110100110111011101,	1,	00110011110001001111011111111111011101100101110110001011101110100,	0
                1830,	1,	10111011101000111011101110111000,	11011101110111110100110111011101,	1,	00011001111000100111101111111111101110110010111011000101110111010,	0
                1840,	0,	10111011101000111011101110111000,	11011101110111110100110111011101,	1,	00011001111000100111101111111111101110110010111011000101110111010,	0
                1850,	1,	10111011101000111011101110111000,	11011101110111110100110111011101,	1,	00001100111100010011110111111111110111011001011101100010111011101,	0
                1860,	0,	10111011101000111011101110111000,	11011101110111110100110111011101,	1,	00001100111100010011110111111111110111011001011101100010111011101,	0
                1870,	1,	10111011101000111011101110111000,	11011101110111110100110111011101,	1,	00111101111100000111001001110111001011101100101110110001011101110,	0
                1880,	0,	10111011101000111011101110111000,	11011101110111110100110111011101,	1,	00111101111100000111001001110111001011101100101110110001011101110,	0
                1890,	1,	10111011101000111011101110111000,	11011101110111110100110111011101,	1,	00011110111110000011100100111011100101110110010111011000101110111,	0
                1900,	0,	10111011101000111011101110111000,	11011101110111110100110111011101,	1,	00011110111110000011100100111011100101110110010111011000101110111,	0
                1910,	1,	10111011101000111011101110111000,	11011101110111110100110111011101,	1,	01000110111100111111000000010101000010111011001011101100010111011,	0
                1920,	0,	10111011101000111011101110111000,	11011101110111110100110111011101,	1,	01000110111100111111000000010101000010111011001011101100010111011,	0
                1925,	0,	00000000000000000000000000000000,	00000000000000000000000000000000,	1,	01000110111100111111000000010101000010111011001011101100010111011,	0
                1930,	1,	00000000000000000000000000000000,	00000000000000000000000000000000,	1,	01011010111100011100101110000001110001011101100101110110001011101,	0
                1940,	0,	00000000000000000000000000000000,	00000000000000000000000000000000,	1,	01011010111100011100101110000001110001011101100101110110001011101,	0
                1950,	1,	00000000000000000000000000000000,	00000000000000000000000000000000,	1,	01100100111100001011100100111000001000101110110010111011000101110,	0
                1960,	0,	00000000000000000000000000000000,	00000000000000000000000000000000,	1,	01100100111100001011100100111000001000101110110010111011000101110,	0
                1970,	1,	00000000000000000000000000000000,	00000000000000000000000000000000,	1,	00110010011110000101110010011100000100010111011001011101100010111,	0
                1980,	0,	00000000000000000000000000000000,	00000000000000000000000000000000,	1,	00110010011110000101110010011100000100010111011001011101100010111,	0
                1990,	1,	00000000000000000000000000000000,	00000000000000000000000000000000,	1,	01010000101101000000000111000101010010001011101100101110110001011,	0
                2000,	0,	00000000000000000000000000000000,	00000000000000000000000000000000,	1,	01010000101101000000000111000101010010001011101100101110110001011,	0
                2010,	1,	00000000000000000000000000000000,	00000000000000000000000000000000,	1,	01011111110100011101010001011001111001000101110110010111011000101,	0
                2020,	0,	00000000000000000000000000000000,	00000000000000000000000000000000,	1,	01011111110100011101010001011001111001000101110110010111011000101,	0
                2030,	1,	00000000000000000000000000000000,	00000000000000000000000000000000,	1,	01100111011000001011110110100100001100100010111011001011101100010,	0
                2040,	0,	00000000000000000000000000000000,	00000000000000000000000000000000,	1,	01100111011000001011110110100100001100100010111011001011101100010,	0
                2050,	1,	00000000000000000000000000000000,	00000000000000000000000000000000,	1,	00110011101100000101111011010010000110010001011101100101110110001,	0
                2060,	0,	00000000000000000000000000000000,	00000000000000000000000000000000,	1,	00110011101100000101111011010010000110010001011101100101110110001,	0
                2070,	1,	00000000000000000000000000000000,	00000000000000000000000000000000,	1,	01010001010100000000001011100000010011001000101110110010111011000,	1
                2080,	0,	00000000000000000000000000000000,	00000000000000000000000000000000,	1,	01010001010100000000001011100000010011001000101110110010111011000,	1
                2090,	1,	00000000000000000000000000000000,	00000000000000000000000000000000,	1,	01010001010100000000001011100000010011001000101110110010111011000,	0
                2100,	0,	00000000000000000000000000000000,	00000000000000000000000000000000,	1,	01010001010100000000001011100000010011001000101110110010111011000,	0
                2110,	1,	00000000000000000000000000000000,	00000000000000000000000000000000,	1,	00000000000000000000000000000000000000000000000000000000000000000,	0
                2120,	0,	00000000000000000000000000000000,	00000000000000000000000000000000,	1,	00000000000000000000000000000000000000000000000000000000000000000,	0
                2130,	1,	00000000000000000000000000000000,	00000000000000000000000000000000,	1,	00000000000000000000000000000000000000000000000000000000000000000,	0
                2140,	0,	00000000000000000000000000000000,	00000000000000000000000000000000,	1,	00000000000000000000000000000000000000000000000000000000000000000,	0
                2150,	1,	00000000000000000000000000000000,	00000000000000000000000000000000,	1,	00000000000000000000000000000000000000000000000000000000000000000,	0
                2160,	0,	00000000000000000000000000000000,	00000000000000000000000000000000,	1,	00000000000000000000000000000000000000000000000000000000000000000,	0
                2170,	1,	00000000000000000000000000000000,	00000000000000000000000000000000,	1,	00000000000000000000000000000000000000000000000000000000000000000,	0
                2180,	0,	00000000000000000000000000000000,	00000000000000000000000000000000,	1,	00000000000000000000000000000000000000000000000000000000000000000,	0
                2190,	1,	00000000000000000000000000000000,	00000000000000000000000000000000,	1,	00000000000000000000000000000000000000000000000000000000000000000,	0
                2200,	0,	00000000000000000000000000000000,	00000000000000000000000000000000,	1,	00000000000000000000000000000000000000000000000000000000000000000,	0
                2210,	1,	00000000000000000000000000000000,	00000000000000000000000000000000,	1,	00000000000000000000000000000000000000000000000000000000000000000,	0
                2220,	0,	00000000000000000000000000000000,	00000000000000000000000000000000,	1,	00000000000000000000000000000000000000000000000000000000000000000,	0
                2230,	1,	00000000000000000000000000000000,	00000000000000000000000000000000,	1,	00000000000000000000000000000000000000000000000000000000000000000,	0
                2240,	0,	00000000000000000000000000000000,	00000000000000000000000000000000,	1,	00000000000000000000000000000000000000000000000000000000000000000,	0
                2250,	1,	00000000000000000000000000000000,	00000000000000000000000000000000,	1,	00000000000000000000000000000000000000000000000000000000000000000,	0
                2260,	0,	00000000000000000000000000000000,	00000000000000000000000000000000,	1,	00000000000000000000000000000000000000000000000000000000000000000,	0
                2270,	1,	00000000000000000000000000000000,	00000000000000000000000000000000,	1,	00000000000000000000000000000000000000000000000000000000000000000,	0
                2280,	0,	00000000000000000000000000000000,	00000000000000000000000000000000,	1,	00000000000000000000000000000000000000000000000000000000000000000,	0
                2290,	1,	00000000000000000000000000000000,	00000000000000000000000000000000,	1,	00000000000000000000000000000000000000000000000000000000000000000,	0
                2300,	0,	00000000000000000000000000000000,	00000000000000000000000000000000,	1,	00000000000000000000000000000000000000000000000000000000000000000,	0
                2310,	1,	00000000000000000000000000000000,	00000000000000000000000000000000,	1,	00000000000000000000000000000000000000000000000000000000000000000,	0
